127.0.0.1 - - [23/Nov/2013:19:52:35 +0100] "GET / HTTP/1.1" 404 951
0:0:0:0:0:0:0:1 - - [23/Nov/2013:19:52:37 +0100] "GET /Strateg/ HTTP/1.1" 200 2076
0:0:0:0:0:0:0:1 - - [23/Nov/2013:19:52:37 +0100] "GET /Strateg/VAADIN/vaadinBootstrap.js HTTP/1.1" 304 -
0:0:0:0:0:0:0:1 - - [23/Nov/2013:19:52:37 +0100] "GET /Strateg/VAADIN/themes/strateg/styles.css HTTP/1.1" 200 188821
0:0:0:0:0:0:0:1 - - [23/Nov/2013:19:52:37 +0100] "GET /Strateg/VAADIN/themes/base/common/img/loading-indicator.gif HTTP/1.1" 304 -
0:0:0:0:0:0:0:1 - - [23/Nov/2013:19:52:37 +0100] "GET /Strateg/VAADIN/widgetsets/pl.edu.agh.strateg.ui.widgetset.StrategWidgetset/pl.edu.agh.strateg.ui.widgetset.StrategWidgetset.nocache.js?1385232757205 HTTP/1.1" 200 7817
0:0:0:0:0:0:0:1 - - [23/Nov/2013:19:52:37 +0100] "GET /Strateg/VAADIN/widgetsets/pl.edu.agh.strateg.ui.widgetset.StrategWidgetset/424BDA33847E257F0C702074BD382306.cache.js HTTP/1.1" 200 1163247
0:0:0:0:0:0:0:1 - - [23/Nov/2013:19:52:37 +0100] "GET /Strateg/VAADIN/themes/strateg/favicon.ico HTTP/1.1" 404 -
0:0:0:0:0:0:0:1 - - [23/Nov/2013:19:52:38 +0100] "POST /Strateg/?v-browserDetails=1&theme=strateg&v-sh=1024&v-sw=1280&v-cw=1280&v-ch=938&v-curdate=1385232757205&v-tzo=-60&v-dstd=60&v-rtzo=-60&v-dston=false&v-vw=1280&v-vh=0&v-loc=http%3A%2F%2Flocalhost%3A8080%2FStrateg%2F&v-wn=Strateg-217338458-0.17513505090028048&v-1385232757221 HTTP/1.1" 200 3918
0:0:0:0:0:0:0:1 - - [23/Nov/2013:19:52:38 +0100] "GET /Strateg/VAADIN/themes/strateg/Icons/Documents.png HTTP/1.1" 404 -
0:0:0:0:0:0:0:1 - - [23/Nov/2013:19:52:38 +0100] "GET /Strateg/VAADIN/themes/strateg/Icons/Metadata.png HTTP/1.1" 404 -
0:0:0:0:0:0:0:1 - - [23/Nov/2013:19:52:38 +0100] "GET /Strateg/VAADIN/themes/strateg/Icons/Report.png HTTP/1.1" 404 -
0:0:0:0:0:0:0:1 - - [23/Nov/2013:19:52:38 +0100] "GET /Strateg/VAADIN/themes/strateg/Icons/Analysis.png HTTP/1.1" 404 -
0:0:0:0:0:0:0:1 - - [23/Nov/2013:19:52:40 +0100] "POST /Strateg/UIDL/?v-sh=1024&v-sw=1280&v-cw=1280&v-ch=938&v-curdate=1385232760793&v-tzo=-60&v-dstd=60&v-rtzo=-60&v-dston=false&v-vw=1280&v-vh=938&v-loc=http%3A%2F%2Flocalhost%3A8080%2FStrateg%2F%23!start&v-wn=Strateg-217338458-0.17513505090028048&v-wsver=7.1.7&v-uiId=0 HTTP/1.1" 200 3850
0:0:0:0:0:0:0:1 - - [23/Nov/2013:19:52:40 +0100] "GET /Strateg/VAADIN/themes/strateg/Icons/Home.png HTTP/1.1" 404 -
0:0:0:0:0:0:0:1 - - [23/Nov/2013:19:52:40 +0100] "GET /Strateg/VAADIN/themes/strateg/Icons/Add.png HTTP/1.1" 404 -
0:0:0:0:0:0:0:1 - - [23/Nov/2013:19:52:40 +0100] "GET /Strateg/VAADIN/themes/strateg/Icons/Search.png HTTP/1.1" 404 -
0:0:0:0:0:0:0:1 - - [23/Nov/2013:19:52:40 +0100] "GET /Strateg/VAADIN/themes/reindeer/button/img/left.png HTTP/1.1" 304 -
0:0:0:0:0:0:0:1 - - [23/Nov/2013:19:52:40 +0100] "GET /Strateg/VAADIN/themes/reindeer/tabsheet/img/framed/tab-first-left.png HTTP/1.1" 304 -
0:0:0:0:0:0:0:1 - - [23/Nov/2013:19:52:40 +0100] "GET /Strateg/VAADIN/themes/reindeer/tabsheet/img/framed/tab-spacer-right.png HTTP/1.1" 304 -
0:0:0:0:0:0:0:1 - - [23/Nov/2013:19:52:40 +0100] "GET /Strateg/VAADIN/themes/reindeer/button/img/right.png HTTP/1.1" 304 -
0:0:0:0:0:0:0:1 - - [23/Nov/2013:19:52:40 +0100] "GET /Strateg/VAADIN/themes/reindeer/tabsheet/img/tab-prev.png HTTP/1.1" 304 -
0:0:0:0:0:0:0:1 - - [23/Nov/2013:19:52:40 +0100] "GET /Strateg/VAADIN/themes/reindeer/tabsheet/img/framed/tab-bg.png HTTP/1.1" 304 -
0:0:0:0:0:0:0:1 - - [23/Nov/2013:19:52:40 +0100] "GET /Strateg/VAADIN/themes/reindeer/tabsheet/img/framed/tab-right.png HTTP/1.1" 304 -
0:0:0:0:0:0:0:1 - - [23/Nov/2013:19:52:40 +0100] "GET /Strateg/VAADIN/themes/reindeer/tabsheet/img/tab-next.png HTTP/1.1" 304 -
0:0:0:0:0:0:0:1 - - [23/Nov/2013:19:52:41 +0100] "GET /Strateg/VAADIN/themes/reindeer/tabsheet/img/framed/tab-bg-sel.png HTTP/1.1" 304 -
0:0:0:0:0:0:0:1 - - [23/Nov/2013:19:52:41 +0100] "GET /Strateg/VAADIN/themes/reindeer/tabsheet/img/framed/tab-right-sel.png HTTP/1.1" 304 -
0:0:0:0:0:0:0:1 - - [23/Nov/2013:19:52:41 +0100] "GET /Strateg/VAADIN/themes/reindeer/tabsheet/img/framed/tab-first-left-sel.png HTTP/1.1" 304 -
0:0:0:0:0:0:0:1 - - [23/Nov/2013:19:52:41 +0100] "GET /Strateg/VAADIN/themes/reindeer/tree/img/arrows.png HTTP/1.1" 304 -
0:0:0:0:0:0:0:1 - - [23/Nov/2013:19:52:43 +0100] "GET /Strateg/VAADIN/themes/reindeer/button/img/left-pressed.png HTTP/1.1" 304 -
0:0:0:0:0:0:0:1 - - [23/Nov/2013:19:52:43 +0100] "GET /Strateg/VAADIN/themes/reindeer/button/img/right-pressed.png HTTP/1.1" 304 -
0:0:0:0:0:0:0:1 - - [23/Nov/2013:19:52:43 +0100] "GET /Strateg/VAADIN/themes/reindeer/button/img/left-focus.png HTTP/1.1" 304 -
0:0:0:0:0:0:0:1 - - [23/Nov/2013:19:52:43 +0100] "GET /Strateg/VAADIN/themes/reindeer/button/img/right-focus.png HTTP/1.1" 304 -
0:0:0:0:0:0:0:1 - - [23/Nov/2013:19:52:43 +0100] "POST /Strateg/UIDL/?v-uiId=0 HTTP/1.1" 200 4626
0:0:0:0:0:0:0:1 - - [23/Nov/2013:19:52:43 +0100] "GET /Strateg/VAADIN/themes/strateg/Icons/Attachment.png HTTP/1.1" 404 -
0:0:0:0:0:0:0:1 - - [23/Nov/2013:19:52:43 +0100] "GET /Strateg/VAADIN/themes/strateg/Icons/Home.png HTTP/1.1" 404 -
0:0:0:0:0:0:0:1 - - [23/Nov/2013:19:52:43 +0100] "GET /Strateg/VAADIN/themes/strateg/Icons/Confirm.png HTTP/1.1" 404 -
0:0:0:0:0:0:0:1 - - [23/Nov/2013:19:52:43 +0100] "GET /Strateg/VAADIN/themes/strateg/Icons/Cancel.png HTTP/1.1" 404 -
0:0:0:0:0:0:0:1 - - [23/Nov/2013:19:52:43 +0100] "GET /Strateg/VAADIN/themes/reindeer/textfield/img/bg.png HTTP/1.1" 304 -
0:0:0:0:0:0:0:1 - - [23/Nov/2013:19:52:52 +0100] "POST /Strateg/UIDL/?v-uiId=0 HTTP/1.1" 200 326
0:0:0:0:0:0:0:1 - - [23/Nov/2013:19:53:00 +0100] "POST /Strateg/UIDL/?v-uiId=0 HTTP/1.1" 200 141
0:0:0:0:0:0:0:1 - - [23/Nov/2013:19:53:00 +0100] "POST /Strateg/APP/UPLOAD/0/59/action/132ae1a0-95fb-480e-9baa-df78cf48b822 HTTP/1.1" 200 53
0:0:0:0:0:0:0:1 - - [23/Nov/2013:19:53:00 +0100] "POST /Strateg/UIDL/?v-uiId=0 HTTP/1.1" 200 609
0:0:0:0:0:0:0:1 - - [23/Nov/2013:19:53:05 +0100] "GET /Strateg/VAADIN/themes/base/common/img/loading-indicator-delay.gif HTTP/1.1" 304 -
0:0:0:0:0:0:0:1 - - [23/Nov/2013:19:53:07 +0100] "POST /Strateg/UIDL/?v-uiId=0 HTTP/1.1" 200 1773
0:0:0:0:0:0:0:1 - - [23/Nov/2013:19:55:00 +0100] "POST /Strateg/UIDL/?v-uiId=0 HTTP/1.1" 200 3144
0:0:0:0:0:0:0:1 - - [23/Nov/2013:19:55:00 +0100] "GET /Strateg/VAADIN/themes/strateg/Icons/Home.png HTTP/1.1" 404 -
0:0:0:0:0:0:0:1 - - [23/Nov/2013:19:55:00 +0100] "GET /Strateg/VAADIN/themes/strateg/Icons/Add.png HTTP/1.1" 404 -
0:0:0:0:0:0:0:1 - - [23/Nov/2013:19:55:00 +0100] "GET /Strateg/VAADIN/themes/strateg/Icons/Search.png HTTP/1.1" 404 -
0:0:0:0:0:0:0:1 - - [23/Nov/2013:19:55:03 +0100] "POST /Strateg/UIDL/?v-uiId=0 HTTP/1.1" 200 1846
0:0:0:0:0:0:0:1 - - [23/Nov/2013:19:55:03 +0100] "GET /Strateg/VAADIN/themes/strateg/Icons/Documents.png HTTP/1.1" 404 -
0:0:0:0:0:0:0:1 - - [23/Nov/2013:19:55:03 +0100] "GET /Strateg/VAADIN/themes/strateg/Icons/Analysis.png HTTP/1.1" 404 -
0:0:0:0:0:0:0:1 - - [23/Nov/2013:19:55:03 +0100] "GET /Strateg/VAADIN/themes/strateg/Icons/Metadata.png HTTP/1.1" 404 -
0:0:0:0:0:0:0:1 - - [23/Nov/2013:19:55:03 +0100] "GET /Strateg/VAADIN/themes/strateg/Icons/Report.png HTTP/1.1" 404 -
0:0:0:0:0:0:0:1 - - [23/Nov/2013:19:55:05 +0100] "POST /Strateg/UIDL/?v-uiId=0 HTTP/1.1" 200 4348
0:0:0:0:0:0:0:1 - - [23/Nov/2013:19:55:05 +0100] "GET /Strateg/VAADIN/themes/reindeer/table/img/header-bg-light.png HTTP/1.1" 304 -
0:0:0:0:0:0:0:1 - - [23/Nov/2013:19:55:05 +0100] "GET /Strateg/VAADIN/themes/reindeer/table/img/col-sel-light.png HTTP/1.1" 304 -
0:0:0:0:0:0:0:1 - - [23/Nov/2013:19:55:05 +0100] "GET /Strateg/VAADIN/themes/strateg/Icons/Home.png HTTP/1.1" 404 -
0:0:0:0:0:0:0:1 - - [23/Nov/2013:19:55:05 +0100] "GET /Strateg/VAADIN/themes/strateg/Icons/Add.png HTTP/1.1" 404 -
0:0:0:0:0:0:0:1 - - [23/Nov/2013:19:55:05 +0100] "GET /Strateg/VAADIN/themes/strateg/Icons/Edit.png HTTP/1.1" 404 -
0:0:0:0:0:0:0:1 - - [23/Nov/2013:19:55:05 +0100] "GET /Strateg/VAADIN/themes/strateg/Icons/Delete.png HTTP/1.1" 404 -
0:0:0:0:0:0:0:1 - - [23/Nov/2013:19:55:09 +0100] "GET /Strateg/VAADIN/themes/reindeer/common/img/sel-bg.png HTTP/1.1" 304 -
0:0:0:0:0:0:0:1 - - [23/Nov/2013:19:55:09 +0100] "POST /Strateg/UIDL/?v-uiId=0 HTTP/1.1" 200 1102
0:0:0:0:0:0:0:1 - - [23/Nov/2013:19:55:11 +0100] "POST /Strateg/UIDL/?v-uiId=0 HTTP/1.1" 200 5184
0:0:0:0:0:0:0:1 - - [23/Nov/2013:19:55:11 +0100] "GET /Strateg/VAADIN/themes/strateg/Icons/Home.png HTTP/1.1" 404 -
0:0:0:0:0:0:0:1 - - [23/Nov/2013:19:55:11 +0100] "GET /Strateg/VAADIN/themes/strateg/Icons/Confirm.png HTTP/1.1" 404 -
0:0:0:0:0:0:0:1 - - [23/Nov/2013:19:55:11 +0100] "GET /Strateg/VAADIN/themes/strateg/Icons/Cancel.png HTTP/1.1" 404 -
0:0:0:0:0:0:0:1 - - [23/Nov/2013:19:55:11 +0100] "GET /Strateg/VAADIN/themes/reindeer/select/img/left.png HTTP/1.1" 304 -
0:0:0:0:0:0:0:1 - - [23/Nov/2013:19:55:11 +0100] "GET /Strateg/VAADIN/themes/reindeer/select/img/right.png HTTP/1.1" 304 -
0:0:0:0:0:0:0:1 - - [23/Nov/2013:19:55:11 +0100] "GET /Strateg/VAADIN/themes/reindeer/select/img/center.png HTTP/1.1" 304 -
0:0:0:0:0:0:0:1 - - [23/Nov/2013:19:55:11 +0100] "GET /Strateg/VAADIN/themes/reindeer/datefield/img/popup-btn.png HTTP/1.1" 304 -
0:0:0:0:0:0:0:1 - - [23/Nov/2013:19:55:13 +0100] "GET /Strateg/VAADIN/themes/reindeer/select/img/right-hover.png HTTP/1.1" 304 -
0:0:0:0:0:0:0:1 - - [23/Nov/2013:19:55:15 +0100] "GET /Strateg/VAADIN/themes/reindeer/select/img/right-pressed.png HTTP/1.1" 304 -
0:0:0:0:0:0:0:1 - - [23/Nov/2013:19:55:15 +0100] "GET /Strateg/VAADIN/themes/reindeer/select/img/left-focus.png HTTP/1.1" 304 -
0:0:0:0:0:0:0:1 - - [23/Nov/2013:19:55:15 +0100] "GET /Strateg/VAADIN/themes/reindeer/select/img/right-focus-hover.png HTTP/1.1" 304 -
0:0:0:0:0:0:0:1 - - [23/Nov/2013:19:55:15 +0100] "GET /Strateg/VAADIN/themes/reindeer/select/img/center-focus.png HTTP/1.1" 304 -
0:0:0:0:0:0:0:1 - - [23/Nov/2013:19:55:15 +0100] "POST /Strateg/UIDL/?v-uiId=0 HTTP/1.1" 200 609
0:0:0:0:0:0:0:1 - - [23/Nov/2013:19:55:15 +0100] "GET /Strateg/VAADIN/themes/reindeer/select/img/status-bg.png HTTP/1.1" 304 -
0:0:0:0:0:0:0:1 - - [23/Nov/2013:19:55:15 +0100] "GET /Strateg/VAADIN/themes/base/shadow/img/top-left.png HTTP/1.1" 304 -
0:0:0:0:0:0:0:1 - - [23/Nov/2013:19:55:15 +0100] "GET /Strateg/VAADIN/themes/base/shadow/img/top.png HTTP/1.1" 304 -
0:0:0:0:0:0:0:1 - - [23/Nov/2013:19:55:15 +0100] "GET /Strateg/VAADIN/themes/base/shadow/img/left.png HTTP/1.1" 304 -
0:0:0:0:0:0:0:1 - - [23/Nov/2013:19:55:15 +0100] "GET /Strateg/VAADIN/themes/base/shadow/img/center.png HTTP/1.1" 304 -
0:0:0:0:0:0:0:1 - - [23/Nov/2013:19:55:15 +0100] "GET /Strateg/VAADIN/themes/base/shadow/img/top-right.png HTTP/1.1" 304 -
0:0:0:0:0:0:0:1 - - [23/Nov/2013:19:55:15 +0100] "GET /Strateg/VAADIN/themes/base/shadow/img/bottom-left.png HTTP/1.1" 304 -
0:0:0:0:0:0:0:1 - - [23/Nov/2013:19:55:15 +0100] "GET /Strateg/VAADIN/themes/base/shadow/img/right.png HTTP/1.1" 304 -
0:0:0:0:0:0:0:1 - - [23/Nov/2013:19:55:15 +0100] "GET /Strateg/VAADIN/themes/base/shadow/img/bottom.png HTTP/1.1" 304 -
0:0:0:0:0:0:0:1 - - [23/Nov/2013:19:55:15 +0100] "GET /Strateg/VAADIN/themes/base/shadow/img/bottom-right.png HTTP/1.1" 304 -
0:0:0:0:0:0:0:1 - - [23/Nov/2013:19:55:16 +0100] "GET /Strateg/VAADIN/themes/reindeer/select/img/right-focus-pressed.png HTTP/1.1" 200 981
0:0:0:0:0:0:0:1 - - [23/Nov/2013:19:55:16 +0100] "GET /Strateg/VAADIN/themes/reindeer/select/img/right-focus.png HTTP/1.1" 304 -
0:0:0:0:0:0:0:1 - - [23/Nov/2013:19:55:17 +0100] "POST /Strateg/UIDL/?v-uiId=0 HTTP/1.1" 200 1401
0:0:0:0:0:0:0:1 - - [23/Nov/2013:19:55:19 +0100] "POST /Strateg/UIDL/?v-uiId=0 HTTP/1.1" 200 510
0:0:0:0:0:0:0:1 - - [23/Nov/2013:19:55:20 +0100] "POST /Strateg/UIDL/?v-uiId=0 HTTP/1.1" 200 510
0:0:0:0:0:0:0:1 - - [23/Nov/2013:19:55:21 +0100] "POST /Strateg/UIDL/?v-uiId=0 HTTP/1.1" 200 510
127.0.0.1 - - [23/Nov/2013:19:57:32 +0100] "GET / HTTP/1.1" 404 951
0:0:0:0:0:0:0:1 - - [23/Nov/2013:19:57:33 +0100] "GET /Strateg/ HTTP/1.1" 200 2076
0:0:0:0:0:0:0:1 - - [23/Nov/2013:19:57:33 +0100] "GET /Strateg/VAADIN/widgetsets/pl.edu.agh.strateg.ui.widgetset.StrategWidgetset/pl.edu.agh.strateg.ui.widgetset.StrategWidgetset.nocache.js?1385233053551 HTTP/1.1" 200 7817
0:0:0:0:0:0:0:1 - - [23/Nov/2013:19:57:34 +0100] "POST /Strateg/?v-browserDetails=1&theme=strateg&v-sh=1024&v-sw=1280&v-cw=1280&v-ch=938&v-curdate=1385233053551&v-tzo=-60&v-dstd=60&v-rtzo=-60&v-dston=false&v-vw=1280&v-vh=0&v-loc=http%3A%2F%2Flocalhost%3A8080%2FStrateg%2F&v-wn=Strateg-217338458-0.4271411767695099&v-1385233053551 HTTP/1.1" 200 3915
0:0:0:0:0:0:0:1 - - [23/Nov/2013:19:57:34 +0100] "GET /Strateg/VAADIN/themes/strateg/Icons/Documents.png HTTP/1.1" 404 -
0:0:0:0:0:0:0:1 - - [23/Nov/2013:19:57:34 +0100] "GET /Strateg/VAADIN/themes/strateg/Icons/Analysis.png HTTP/1.1" 404 -
0:0:0:0:0:0:0:1 - - [23/Nov/2013:19:57:34 +0100] "GET /Strateg/VAADIN/themes/strateg/Icons/Metadata.png HTTP/1.1" 404 -
0:0:0:0:0:0:0:1 - - [23/Nov/2013:19:57:34 +0100] "GET /Strateg/VAADIN/themes/strateg/Icons/Report.png HTTP/1.1" 404 -
0:0:0:0:0:0:0:1 - - [23/Nov/2013:19:57:52 +0100] "POST /Strateg/UIDL/?v-sh=1024&v-sw=1280&v-cw=1280&v-ch=938&v-curdate=1385233072115&v-tzo=-60&v-dstd=60&v-rtzo=-60&v-dston=false&v-vw=1280&v-vh=938&v-loc=http%3A%2F%2Flocalhost%3A8080%2FStrateg%2F%23!start&v-wn=Strateg-217338458-0.4271411767695099&v-wsver=7.1.7&v-uiId=0 HTTP/1.1" 200 4445
0:0:0:0:0:0:0:1 - - [23/Nov/2013:19:57:52 +0100] "GET /Strateg/VAADIN/themes/strateg/Icons/Home.png HTTP/1.1" 404 -
0:0:0:0:0:0:0:1 - - [23/Nov/2013:19:57:52 +0100] "GET /Strateg/VAADIN/themes/strateg/Icons/Add.png HTTP/1.1" 404 -
0:0:0:0:0:0:0:1 - - [23/Nov/2013:19:57:52 +0100] "GET /Strateg/VAADIN/themes/strateg/Icons/Delete.png HTTP/1.1" 404 -
0:0:0:0:0:0:0:1 - - [23/Nov/2013:19:57:52 +0100] "GET /Strateg/VAADIN/themes/strateg/Icons/Edit.png HTTP/1.1" 404 -
0:0:0:0:0:0:0:1 - - [23/Nov/2013:19:57:55 +0100] "POST /Strateg/UIDL/?v-uiId=0 HTTP/1.1" 200 5272
0:0:0:0:0:0:0:1 - - [23/Nov/2013:19:57:55 +0100] "GET /Strateg/VAADIN/themes/strateg/Icons/Home.png HTTP/1.1" 404 -
0:0:0:0:0:0:0:1 - - [23/Nov/2013:19:57:55 +0100] "GET /Strateg/VAADIN/themes/strateg/Icons/Confirm.png HTTP/1.1" 404 -
0:0:0:0:0:0:0:1 - - [23/Nov/2013:19:57:55 +0100] "GET /Strateg/VAADIN/themes/strateg/Icons/Cancel.png HTTP/1.1" 404 -
0:0:0:0:0:0:0:1 - - [23/Nov/2013:19:58:14 +0100] "POST /Strateg/UIDL/?v-uiId=0 HTTP/1.1" 200 181
0:0:0:0:0:0:0:1 - - [23/Nov/2013:19:58:16 +0100] "GET /Strateg/ HTTP/1.1" 200 2076
0:0:0:0:0:0:0:1 - - [23/Nov/2013:19:58:16 +0100] "GET /Strateg/VAADIN/widgetsets/pl.edu.agh.strateg.ui.widgetset.StrategWidgetset/pl.edu.agh.strateg.ui.widgetset.StrategWidgetset.nocache.js?1385233096686 HTTP/1.1" 200 7817
0:0:0:0:0:0:0:1 - - [23/Nov/2013:19:58:17 +0100] "POST /Strateg/?v-browserDetails=1&theme=strateg&v-sh=1024&v-sw=1280&v-cw=1280&v-ch=938&v-curdate=1385233096686&v-tzo=-60&v-dstd=60&v-rtzo=-60&v-dston=false&v-vw=1280&v-vh=938&v-loc=http%3A%2F%2Flocalhost%3A8080%2FStrateg%2F%23!nowa_metadana&v-wn=Strateg-217338458-0.4271411767695099&v-1385233096686 HTTP/1.1" 200 3915
0:0:0:0:0:0:0:1 - - [23/Nov/2013:19:58:17 +0100] "GET /Strateg/VAADIN/themes/strateg/Icons/Documents.png HTTP/1.1" 404 -
0:0:0:0:0:0:0:1 - - [23/Nov/2013:19:58:17 +0100] "GET /Strateg/VAADIN/themes/strateg/Icons/Analysis.png HTTP/1.1" 404 -
0:0:0:0:0:0:0:1 - - [23/Nov/2013:19:58:17 +0100] "GET /Strateg/VAADIN/themes/strateg/Icons/Metadata.png HTTP/1.1" 404 -
0:0:0:0:0:0:0:1 - - [23/Nov/2013:19:58:17 +0100] "GET /Strateg/VAADIN/themes/strateg/Icons/Report.png HTTP/1.1" 404 -
0:0:0:0:0:0:0:1 - - [23/Nov/2013:19:58:18 +0100] "POST /Strateg/UIDL/?v-sh=1024&v-sw=1280&v-cw=1280&v-ch=938&v-curdate=1385233098370&v-tzo=-60&v-dstd=60&v-rtzo=-60&v-dston=false&v-vw=1280&v-vh=938&v-loc=http%3A%2F%2Flocalhost%3A8080%2FStrateg%2F%23!start&v-wn=Strateg-217338458-0.4271411767695099&v-wsver=7.1.7&v-uiId=0 HTTP/1.1" 200 4445
0:0:0:0:0:0:0:1 - - [23/Nov/2013:19:58:18 +0100] "GET /Strateg/VAADIN/themes/strateg/Icons/Home.png HTTP/1.1" 404 -
0:0:0:0:0:0:0:1 - - [23/Nov/2013:19:58:18 +0100] "GET /Strateg/VAADIN/themes/strateg/Icons/Add.png HTTP/1.1" 404 -
0:0:0:0:0:0:0:1 - - [23/Nov/2013:19:58:18 +0100] "GET /Strateg/VAADIN/themes/strateg/Icons/Edit.png HTTP/1.1" 404 -
0:0:0:0:0:0:0:1 - - [23/Nov/2013:19:58:18 +0100] "GET /Strateg/VAADIN/themes/strateg/Icons/Delete.png HTTP/1.1" 404 -
0:0:0:0:0:0:0:1 - - [23/Nov/2013:19:58:20 +0100] "POST /Strateg/UIDL/?v-uiId=0 HTTP/1.1" 200 7783
0:0:0:0:0:0:0:1 - - [23/Nov/2013:19:58:20 +0100] "GET /Strateg/VAADIN/themes/strateg/Icons/Home.png HTTP/1.1" 404 -
0:0:0:0:0:0:0:1 - - [23/Nov/2013:19:58:20 +0100] "GET /Strateg/VAADIN/themes/strateg/Icons/Confirm.png HTTP/1.1" 404 -
0:0:0:0:0:0:0:1 - - [23/Nov/2013:19:58:20 +0100] "GET /Strateg/VAADIN/themes/strateg/Icons/Cancel.png HTTP/1.1" 404 -
0:0:0:0:0:0:0:1 - - [23/Nov/2013:19:58:26 +0100] "POST /Strateg/UIDL/?v-uiId=0 HTTP/1.1" 200 507
0:0:0:0:0:0:0:1 - - [23/Nov/2013:19:58:26 +0100] "POST /Strateg/UIDL/?v-uiId=0 HTTP/1.1" 200 506
0:0:0:0:0:0:0:1 - - [23/Nov/2013:19:58:29 +0100] "POST /Strateg/UIDL/?v-uiId=0 HTTP/1.1" 200 506
0:0:0:0:0:0:0:1 - - [23/Nov/2013:19:58:30 +0100] "POST /Strateg/UIDL/?v-uiId=0 HTTP/1.1" 200 506
0:0:0:0:0:0:0:1 - - [23/Nov/2013:19:58:32 +0100] "POST /Strateg/UIDL/?v-uiId=0 HTTP/1.1" 200 506
0:0:0:0:0:0:0:1 - - [23/Nov/2013:19:58:34 +0100] "POST /Strateg/UIDL/?v-uiId=0 HTTP/1.1" 200 506
0:0:0:0:0:0:0:1 - - [23/Nov/2013:19:58:36 +0100] "POST /Strateg/UIDL/?v-uiId=0 HTTP/1.1" 200 506
0:0:0:0:0:0:0:1 - - [23/Nov/2013:19:58:38 +0100] "POST /Strateg/UIDL/?v-uiId=0 HTTP/1.1" 200 506
0:0:0:0:0:0:0:1 - - [23/Nov/2013:19:58:39 +0100] "POST /Strateg/UIDL/?v-uiId=0 HTTP/1.1" 200 506
0:0:0:0:0:0:0:1 - - [23/Nov/2013:19:58:40 +0100] "POST /Strateg/UIDL/?v-uiId=0 HTTP/1.1" 200 506
0:0:0:0:0:0:0:1 - - [23/Nov/2013:19:58:41 +0100] "POST /Strateg/UIDL/?v-uiId=0 HTTP/1.1" 200 506
0:0:0:0:0:0:0:1 - - [23/Nov/2013:19:58:42 +0100] "POST /Strateg/UIDL/?v-uiId=0 HTTP/1.1" 200 506
0:0:0:0:0:0:0:1 - - [23/Nov/2013:19:58:43 +0100] "POST /Strateg/UIDL/?v-uiId=0 HTTP/1.1" 200 508
0:0:0:0:0:0:0:1 - - [23/Nov/2013:19:58:46 +0100] "POST /Strateg/UIDL/?v-uiId=0 HTTP/1.1" 200 589
0:0:0:0:0:0:0:1 - - [23/Nov/2013:19:58:46 +0100] "POST /Strateg/UIDL/?v-uiId=0 HTTP/1.1" 200 506
0:0:0:0:0:0:0:1 - - [23/Nov/2013:19:58:47 +0100] "POST /Strateg/UIDL/?v-uiId=0 HTTP/1.1" 200 408
0:0:0:0:0:0:0:1 - - [23/Nov/2013:19:58:48 +0100] "GET /Strateg/VAADIN/themes/reindeer/notification/img/error-close.png HTTP/1.1" 304 -
0:0:0:0:0:0:0:1 - - [23/Nov/2013:19:58:54 +0100] "POST /Strateg/UIDL/?v-uiId=0 HTTP/1.1" 200 506
0:0:0:0:0:0:0:1 - - [23/Nov/2013:19:58:55 +0100] "POST /Strateg/UIDL/?v-uiId=0 HTTP/1.1" 200 506
0:0:0:0:0:0:0:1 - - [23/Nov/2013:19:59:15 +0100] "POST /Strateg/UIDL/?v-uiId=0 HTTP/1.1" 200 3854
0:0:0:0:0:0:0:1 - - [23/Nov/2013:19:59:15 +0100] "GET /Strateg/VAADIN/themes/strateg/Icons/Home.png HTTP/1.1" 404 -
0:0:0:0:0:0:0:1 - - [23/Nov/2013:19:59:15 +0100] "GET /Strateg/VAADIN/themes/strateg/Icons/Add.png HTTP/1.1" 404 -
0:0:0:0:0:0:0:1 - - [23/Nov/2013:19:59:15 +0100] "GET /Strateg/VAADIN/themes/strateg/Icons/Edit.png HTTP/1.1" 404 -
0:0:0:0:0:0:0:1 - - [23/Nov/2013:19:59:15 +0100] "GET /Strateg/VAADIN/themes/strateg/Icons/Delete.png HTTP/1.1" 404 -
0:0:0:0:0:0:0:1 - - [23/Nov/2013:19:59:16 +0100] "POST /Strateg/UIDL/?v-uiId=0 HTTP/1.1" 200 7323
0:0:0:0:0:0:0:1 - - [23/Nov/2013:19:59:16 +0100] "GET /Strateg/VAADIN/themes/strateg/Icons/Home.png HTTP/1.1" 404 -
0:0:0:0:0:0:0:1 - - [23/Nov/2013:19:59:16 +0100] "GET /Strateg/VAADIN/themes/strateg/Icons/Cancel.png HTTP/1.1" 404 -
0:0:0:0:0:0:0:1 - - [23/Nov/2013:19:59:16 +0100] "GET /Strateg/VAADIN/themes/strateg/Icons/Confirm.png HTTP/1.1" 404 -
0:0:0:0:0:0:0:1 - - [23/Nov/2013:19:59:19 +0100] "POST /Strateg/UIDL/?v-uiId=0 HTTP/1.1" 200 3903
0:0:0:0:0:0:0:1 - - [23/Nov/2013:19:59:19 +0100] "GET /Strateg/VAADIN/themes/strateg/Icons/Home.png HTTP/1.1" 404 -
0:0:0:0:0:0:0:1 - - [23/Nov/2013:19:59:19 +0100] "GET /Strateg/VAADIN/themes/strateg/Icons/Add.png HTTP/1.1" 404 -
0:0:0:0:0:0:0:1 - - [23/Nov/2013:19:59:19 +0100] "GET /Strateg/VAADIN/themes/strateg/Icons/Edit.png HTTP/1.1" 404 -
0:0:0:0:0:0:0:1 - - [23/Nov/2013:19:59:19 +0100] "GET /Strateg/VAADIN/themes/strateg/Icons/Delete.png HTTP/1.1" 404 -
0:0:0:0:0:0:0:1 - - [23/Nov/2013:19:59:20 +0100] "POST /Strateg/UIDL/?v-uiId=0 HTTP/1.1" 200 7323
0:0:0:0:0:0:0:1 - - [23/Nov/2013:19:59:20 +0100] "GET /Strateg/VAADIN/themes/strateg/Icons/Home.png HTTP/1.1" 404 -
0:0:0:0:0:0:0:1 - - [23/Nov/2013:19:59:20 +0100] "GET /Strateg/VAADIN/themes/strateg/Icons/Confirm.png HTTP/1.1" 404 -
0:0:0:0:0:0:0:1 - - [23/Nov/2013:19:59:20 +0100] "GET /Strateg/VAADIN/themes/strateg/Icons/Cancel.png HTTP/1.1" 404 -
0:0:0:0:0:0:0:1 - - [23/Nov/2013:19:59:20 +0100] "POST /Strateg/UIDL/?v-uiId=0 HTTP/1.1" 200 511
0:0:0:0:0:0:0:1 - - [23/Nov/2013:19:59:21 +0100] "POST /Strateg/UIDL/?v-uiId=0 HTTP/1.1" 200 510
0:0:0:0:0:0:0:1 - - [23/Nov/2013:19:59:22 +0100] "GET /Strateg/VAADIN/themes/reindeer/datefield/img/popup-btn-pressed.png HTTP/1.1" 200 638
0:0:0:0:0:0:0:1 - - [23/Nov/2013:19:59:22 +0100] "GET /Strateg/VAADIN/themes/reindeer/datefield/img/month-next.png HTTP/1.1" 200 309
0:0:0:0:0:0:0:1 - - [23/Nov/2013:19:59:22 +0100] "GET /Strateg/VAADIN/themes/reindeer/datefield/img/header-bg.png HTTP/1.1" 200 146
0:0:0:0:0:0:0:1 - - [23/Nov/2013:19:59:22 +0100] "GET /Strateg/VAADIN/themes/reindeer/datefield/img/year-prev.png HTTP/1.1" 200 707
0:0:0:0:0:0:0:1 - - [23/Nov/2013:19:59:22 +0100] "GET /Strateg/VAADIN/themes/reindeer/datefield/img/month-prev.png HTTP/1.1" 200 306
0:0:0:0:0:0:0:1 - - [23/Nov/2013:19:59:22 +0100] "GET /Strateg/VAADIN/themes/reindeer/datefield/img/weekday-bg.png HTTP/1.1" 200 173
0:0:0:0:0:0:0:1 - - [23/Nov/2013:19:59:22 +0100] "GET /Strateg/VAADIN/themes/reindeer/datefield/img/year-next.png HTTP/1.1" 200 723
0:0:0:0:0:0:0:1 - - [23/Nov/2013:19:59:22 +0100] "GET /Strateg/VAADIN/themes/reindeer/datefield/img/weekday-last.png HTTP/1.1" 200 193
0:0:0:0:0:0:0:1 - - [23/Nov/2013:19:59:22 +0100] "GET /Strateg/VAADIN/themes/reindeer/datefield/img/weekday-first.png HTTP/1.1" 200 202
0:0:0:0:0:0:0:1 - - [23/Nov/2013:19:59:23 +0100] "POST /Strateg/UIDL/?v-uiId=0 HTTP/1.1" 200 321
0:0:0:0:0:0:0:1 - - [23/Nov/2013:19:59:24 +0100] "POST /Strateg/UIDL/?v-uiId=0 HTTP/1.1" 200 397
0:0:0:0:0:0:0:1 - - [23/Nov/2013:19:59:29 +0100] "POST /Strateg/UIDL/?v-uiId=0 HTTP/1.1" 200 494
0:0:0:0:0:0:0:1 - - [23/Nov/2013:19:59:31 +0100] "POST /Strateg/UIDL/?v-uiId=0 HTTP/1.1" 200 3902
0:0:0:0:0:0:0:1 - - [23/Nov/2013:19:59:32 +0100] "GET /Strateg/VAADIN/themes/strateg/Icons/Home.png HTTP/1.1" 404 -
0:0:0:0:0:0:0:1 - - [23/Nov/2013:19:59:32 +0100] "GET /Strateg/VAADIN/themes/strateg/Icons/Add.png HTTP/1.1" 404 -
0:0:0:0:0:0:0:1 - - [23/Nov/2013:19:59:32 +0100] "GET /Strateg/VAADIN/themes/strateg/Icons/Edit.png HTTP/1.1" 404 -
0:0:0:0:0:0:0:1 - - [23/Nov/2013:19:59:32 +0100] "GET /Strateg/VAADIN/themes/strateg/Icons/Delete.png HTTP/1.1" 404 -
0:0:0:0:0:0:0:1 - - [23/Nov/2013:19:59:55 +0100] "POST /Strateg/UIDL/?v-uiId=0 HTTP/1.1" 200 1102
0:0:0:0:0:0:0:1 - - [23/Nov/2013:19:59:57 +0100] "POST /Strateg/UIDL/?v-uiId=0 HTTP/1.1" 200 673
0:0:0:0:0:0:0:1 - - [23/Nov/2013:20:00:00 +0100] "POST /Strateg/UIDL/?v-uiId=0 HTTP/1.1" 200 1097
0:0:0:0:0:0:0:1 - - [23/Nov/2013:20:00:01 +0100] "POST /Strateg/UIDL/?v-uiId=0 HTTP/1.1" 200 1101
0:0:0:0:0:0:0:1 - - [23/Nov/2013:20:00:01 +0100] "POST /Strateg/UIDL/?v-uiId=0 HTTP/1.1" 200 705
0:0:0:0:0:0:0:1 - - [23/Nov/2013:20:00:02 +0100] "POST /Strateg/UIDL/?v-uiId=0 HTTP/1.1" 200 1066
0:0:0:0:0:0:0:1 - - [23/Nov/2013:20:00:03 +0100] "POST /Strateg/UIDL/?v-uiId=0 HTTP/1.1" 200 158
