127.0.0.1 - - [24/Nov/2013:18:19:39 +0100] "GET / HTTP/1.1" 404 951
0:0:0:0:0:0:0:1 - - [24/Nov/2013:18:19:40 +0100] "GET /Strateg/ HTTP/1.1" 200 2076
0:0:0:0:0:0:0:1 - - [24/Nov/2013:18:19:40 +0100] "GET /Strateg/VAADIN/vaadinBootstrap.js HTTP/1.1" 304 -
0:0:0:0:0:0:0:1 - - [24/Nov/2013:18:19:40 +0100] "GET /Strateg/VAADIN/themes/strateg/styles.css HTTP/1.1" 200 188821
0:0:0:0:0:0:0:1 - - [24/Nov/2013:18:19:40 +0100] "GET /Strateg/VAADIN/widgetsets/pl.edu.agh.strateg.ui.widgetset.StrategWidgetset/pl.edu.agh.strateg.ui.widgetset.StrategWidgetset.nocache.js?1385313580107 HTTP/1.1" 200 7817
0:0:0:0:0:0:0:1 - - [24/Nov/2013:18:19:40 +0100] "GET /Strateg/VAADIN/themes/base/common/img/loading-indicator.gif HTTP/1.1" 304 -
0:0:0:0:0:0:0:1 - - [24/Nov/2013:18:19:40 +0100] "GET /Strateg/VAADIN/widgetsets/pl.edu.agh.strateg.ui.widgetset.StrategWidgetset/424BDA33847E257F0C702074BD382306.cache.js HTTP/1.1" 304 -
0:0:0:0:0:0:0:1 - - [24/Nov/2013:18:19:40 +0100] "GET /Strateg/VAADIN/themes/strateg/favicon.ico HTTP/1.1" 404 -
0:0:0:0:0:0:0:1 - - [24/Nov/2013:18:19:41 +0100] "POST /Strateg/?v-browserDetails=1&theme=strateg&v-sh=1024&v-sw=1280&v-cw=1280&v-ch=938&v-curdate=1385313580107&v-tzo=-60&v-dstd=60&v-rtzo=-60&v-dston=false&v-vw=1280&v-vh=0&v-loc=http%3A%2F%2Flocalhost%3A8080%2FStrateg%2F&v-wn=Strateg-217338458-0.04548512538895011&v-1385313580107 HTTP/1.1" 200 3918
0:0:0:0:0:0:0:1 - - [24/Nov/2013:18:19:41 +0100] "GET /Strateg/VAADIN/themes/strateg/Icons/Documents.png HTTP/1.1" 404 -
0:0:0:0:0:0:0:1 - - [24/Nov/2013:18:19:41 +0100] "GET /Strateg/VAADIN/themes/strateg/Icons/Metadata.png HTTP/1.1" 404 -
0:0:0:0:0:0:0:1 - - [24/Nov/2013:18:19:41 +0100] "GET /Strateg/VAADIN/themes/strateg/Icons/Report.png HTTP/1.1" 404 -
0:0:0:0:0:0:0:1 - - [24/Nov/2013:18:19:41 +0100] "GET /Strateg/VAADIN/themes/strateg/Icons/Analysis.png HTTP/1.1" 404 -
0:0:0:0:0:0:0:1 - - [24/Nov/2013:18:21:04 +0100] "GET /Strateg/VAADIN/themes/base/common/img/loading-indicator-delay.gif HTTP/1.1" 304 -
0:0:0:0:0:0:0:1 - - [24/Nov/2013:18:21:07 +0100] "GET /Strateg/VAADIN/themes/base/common/img/loading-indicator-wait.gif HTTP/1.1" 304 -
127.0.0.1 - - [24/Nov/2013:18:24:46 +0100] "GET / HTTP/1.1" 404 951
0:0:0:0:0:0:0:1 - - [24/Nov/2013:18:24:46 +0100] "GET /Strateg/ HTTP/1.1" 200 2076
0:0:0:0:0:0:0:1 - - [24/Nov/2013:18:24:47 +0100] "GET /Strateg/VAADIN/widgetsets/pl.edu.agh.strateg.ui.widgetset.StrategWidgetset/pl.edu.agh.strateg.ui.widgetset.StrategWidgetset.nocache.js?1385313887015 HTTP/1.1" 200 7817
127.0.0.1 - - [24/Nov/2013:18:29:36 +0100] "GET / HTTP/1.1" 404 951
0:0:0:0:0:0:0:1 - - [24/Nov/2013:18:29:37 +0100] "GET /Strateg/ HTTP/1.1" 200 2076
0:0:0:0:0:0:0:1 - - [24/Nov/2013:18:29:37 +0100] "GET /Strateg/VAADIN/widgetsets/pl.edu.agh.strateg.ui.widgetset.StrategWidgetset/pl.edu.agh.strateg.ui.widgetset.StrategWidgetset.nocache.js?1385314177341 HTTP/1.1" 200 7817
0:0:0:0:0:0:0:1 - - [24/Nov/2013:18:29:38 +0100] "POST /Strateg/?v-browserDetails=1&theme=strateg&v-sh=1024&v-sw=1280&v-cw=1280&v-ch=938&v-curdate=1385314177341&v-tzo=-60&v-dstd=60&v-rtzo=-60&v-dston=false&v-vw=1280&v-vh=0&v-loc=http%3A%2F%2Flocalhost%3A8080%2FStrateg%2F&v-wn=Strateg-217338458-0.2373821777291596&v-1385314177341 HTTP/1.1" 200 3915
0:0:0:0:0:0:0:1 - - [24/Nov/2013:18:29:38 +0100] "GET /Strateg/VAADIN/themes/strateg/Icons/Documents.png HTTP/1.1" 404 -
0:0:0:0:0:0:0:1 - - [24/Nov/2013:18:29:38 +0100] "GET /Strateg/VAADIN/themes/strateg/Icons/Analysis.png HTTP/1.1" 404 -
0:0:0:0:0:0:0:1 - - [24/Nov/2013:18:29:38 +0100] "GET /Strateg/VAADIN/themes/strateg/Icons/Metadata.png HTTP/1.1" 404 -
0:0:0:0:0:0:0:1 - - [24/Nov/2013:18:29:38 +0100] "GET /Strateg/VAADIN/themes/strateg/Icons/Report.png HTTP/1.1" 404 -
0:0:0:0:0:0:0:1 - - [24/Nov/2013:18:29:42 +0100] "POST /Strateg/UIDL/?v-sh=1024&v-sw=1280&v-cw=1280&v-ch=938&v-curdate=1385314182348&v-tzo=-60&v-dstd=60&v-rtzo=-60&v-dston=false&v-vw=1280&v-vh=938&v-loc=http%3A%2F%2Flocalhost%3A8080%2FStrateg%2F%23!start&v-wn=Strateg-217338458-0.2373821777291596&v-wsver=7.1.7&v-uiId=0 HTTP/1.1" 200 4439
0:0:0:0:0:0:0:1 - - [24/Nov/2013:18:29:42 +0100] "GET /Strateg/VAADIN/themes/reindeer/button/img/left.png HTTP/1.1" 304 -
0:0:0:0:0:0:0:1 - - [24/Nov/2013:18:29:42 +0100] "GET /Strateg/VAADIN/themes/reindeer/button/img/right.png HTTP/1.1" 304 -
0:0:0:0:0:0:0:1 - - [24/Nov/2013:18:29:42 +0100] "GET /Strateg/VAADIN/themes/reindeer/tabsheet/img/framed/tab-bg.png HTTP/1.1" 304 -
0:0:0:0:0:0:0:1 - - [24/Nov/2013:18:29:42 +0100] "GET /Strateg/VAADIN/themes/reindeer/tabsheet/img/framed/tab-spacer-right.png HTTP/1.1" 304 -
0:0:0:0:0:0:0:1 - - [24/Nov/2013:18:29:42 +0100] "GET /Strateg/VAADIN/themes/reindeer/tabsheet/img/tab-next.png HTTP/1.1" 304 -
0:0:0:0:0:0:0:1 - - [24/Nov/2013:18:29:42 +0100] "GET /Strateg/VAADIN/themes/reindeer/table/img/header-bg-light.png HTTP/1.1" 304 -
0:0:0:0:0:0:0:1 - - [24/Nov/2013:18:29:42 +0100] "GET /Strateg/VAADIN/themes/reindeer/table/img/col-sel-light.png HTTP/1.1" 304 -
0:0:0:0:0:0:0:1 - - [24/Nov/2013:18:29:42 +0100] "GET /Strateg/VAADIN/themes/reindeer/tabsheet/img/tab-prev.png HTTP/1.1" 304 -
0:0:0:0:0:0:0:1 - - [24/Nov/2013:18:29:42 +0100] "GET /Strateg/VAADIN/themes/strateg/Icons/Home.png HTTP/1.1" 404 -
0:0:0:0:0:0:0:1 - - [24/Nov/2013:18:29:42 +0100] "GET /Strateg/VAADIN/themes/strateg/Icons/Add.png HTTP/1.1" 404 -
0:0:0:0:0:0:0:1 - - [24/Nov/2013:18:29:42 +0100] "GET /Strateg/VAADIN/themes/strateg/Icons/Edit.png HTTP/1.1" 404 -
0:0:0:0:0:0:0:1 - - [24/Nov/2013:18:29:42 +0100] "GET /Strateg/VAADIN/themes/strateg/Icons/Delete.png HTTP/1.1" 404 -
0:0:0:0:0:0:0:1 - - [24/Nov/2013:18:29:42 +0100] "GET /Strateg/VAADIN/themes/reindeer/tabsheet/img/framed/tab-first-left.png HTTP/1.1" 304 -
0:0:0:0:0:0:0:1 - - [24/Nov/2013:18:29:42 +0100] "GET /Strateg/VAADIN/themes/reindeer/tabsheet/img/framed/tab-right.png HTTP/1.1" 304 -
0:0:0:0:0:0:0:1 - - [24/Nov/2013:18:29:42 +0100] "GET /Strateg/VAADIN/themes/reindeer/tabsheet/img/framed/tab-first-left-sel.png HTTP/1.1" 304 -
0:0:0:0:0:0:0:1 - - [24/Nov/2013:18:29:42 +0100] "GET /Strateg/VAADIN/themes/reindeer/tabsheet/img/framed/tab-right-sel.png HTTP/1.1" 304 -
0:0:0:0:0:0:0:1 - - [24/Nov/2013:18:29:42 +0100] "GET /Strateg/VAADIN/themes/reindeer/tabsheet/img/framed/tab-bg-sel.png HTTP/1.1" 304 -
0:0:0:0:0:0:0:1 - - [24/Nov/2013:18:29:42 +0100] "GET /Strateg/VAADIN/themes/reindeer/tree/img/arrows.png HTTP/1.1" 304 -
0:0:0:0:0:0:0:1 - - [24/Nov/2013:18:29:44 +0100] "GET /Strateg/VAADIN/themes/reindeer/button/img/right-pressed.png HTTP/1.1" 304 -
0:0:0:0:0:0:0:1 - - [24/Nov/2013:18:29:44 +0100] "GET /Strateg/VAADIN/themes/reindeer/button/img/left-pressed.png HTTP/1.1" 304 -
0:0:0:0:0:0:0:1 - - [24/Nov/2013:18:29:44 +0100] "GET /Strateg/VAADIN/themes/reindeer/button/img/left-focus.png HTTP/1.1" 304 -
0:0:0:0:0:0:0:1 - - [24/Nov/2013:18:29:44 +0100] "GET /Strateg/VAADIN/themes/reindeer/button/img/right-focus.png HTTP/1.1" 304 -
0:0:0:0:0:0:0:1 - - [24/Nov/2013:18:29:44 +0100] "POST /Strateg/UIDL/?v-uiId=0 HTTP/1.1" 200 5268
0:0:0:0:0:0:0:1 - - [24/Nov/2013:18:29:44 +0100] "GET /Strateg/VAADIN/themes/strateg/Icons/Home.png HTTP/1.1" 404 -
0:0:0:0:0:0:0:1 - - [24/Nov/2013:18:29:44 +0100] "GET /Strateg/VAADIN/themes/strateg/Icons/Confirm.png HTTP/1.1" 404 -
0:0:0:0:0:0:0:1 - - [24/Nov/2013:18:29:44 +0100] "GET /Strateg/VAADIN/themes/strateg/Icons/Cancel.png HTTP/1.1" 404 -
0:0:0:0:0:0:0:1 - - [24/Nov/2013:18:29:44 +0100] "GET /Strateg/VAADIN/themes/reindeer/textfield/img/bg.png HTTP/1.1" 304 -
0:0:0:0:0:0:0:1 - - [24/Nov/2013:18:29:44 +0100] "GET /Strateg/VAADIN/themes/reindeer/datefield/img/popup-btn.png HTTP/1.1" 304 -
0:0:0:0:0:0:0:1 - - [24/Nov/2013:18:29:44 +0100] "GET /Strateg/VAADIN/themes/reindeer/select/img/left.png HTTP/1.1" 304 -
0:0:0:0:0:0:0:1 - - [24/Nov/2013:18:29:44 +0100] "GET /Strateg/VAADIN/themes/reindeer/select/img/right.png HTTP/1.1" 304 -
0:0:0:0:0:0:0:1 - - [24/Nov/2013:18:29:44 +0100] "GET /Strateg/VAADIN/themes/reindeer/select/img/center.png HTTP/1.1" 304 -
0:0:0:0:0:0:0:1 - - [24/Nov/2013:18:29:48 +0100] "GET /Strateg/VAADIN/themes/reindeer/select/img/right-hover.png HTTP/1.1" 304 -
0:0:0:0:0:0:0:1 - - [24/Nov/2013:18:29:51 +0100] "GET /Strateg/VAADIN/themes/reindeer/select/img/right-pressed.png HTTP/1.1" 304 -
0:0:0:0:0:0:0:1 - - [24/Nov/2013:18:29:51 +0100] "GET /Strateg/VAADIN/themes/reindeer/select/img/right-focus-hover.png HTTP/1.1" 304 -
0:0:0:0:0:0:0:1 - - [24/Nov/2013:18:29:51 +0100] "GET /Strateg/VAADIN/themes/reindeer/select/img/left-focus.png HTTP/1.1" 304 -
0:0:0:0:0:0:0:1 - - [24/Nov/2013:18:29:51 +0100] "GET /Strateg/VAADIN/themes/reindeer/select/img/center-focus.png HTTP/1.1" 304 -
0:0:0:0:0:0:0:1 - - [24/Nov/2013:18:29:51 +0100] "POST /Strateg/UIDL/?v-uiId=0 HTTP/1.1" 200 605
0:0:0:0:0:0:0:1 - - [24/Nov/2013:18:29:51 +0100] "GET /Strateg/VAADIN/themes/reindeer/common/img/sel-bg.png HTTP/1.1" 304 -
0:0:0:0:0:0:0:1 - - [24/Nov/2013:18:29:51 +0100] "GET /Strateg/VAADIN/themes/reindeer/select/img/status-bg.png HTTP/1.1" 304 -
0:0:0:0:0:0:0:1 - - [24/Nov/2013:18:29:51 +0100] "GET /Strateg/VAADIN/themes/base/shadow/img/top-left.png HTTP/1.1" 304 -
0:0:0:0:0:0:0:1 - - [24/Nov/2013:18:29:51 +0100] "GET /Strateg/VAADIN/themes/base/shadow/img/top.png HTTP/1.1" 304 -
0:0:0:0:0:0:0:1 - - [24/Nov/2013:18:29:51 +0100] "GET /Strateg/VAADIN/themes/base/shadow/img/left.png HTTP/1.1" 304 -
0:0:0:0:0:0:0:1 - - [24/Nov/2013:18:29:51 +0100] "GET /Strateg/VAADIN/themes/base/shadow/img/right.png HTTP/1.1" 304 -
0:0:0:0:0:0:0:1 - - [24/Nov/2013:18:29:51 +0100] "GET /Strateg/VAADIN/themes/base/shadow/img/bottom.png HTTP/1.1" 304 -
0:0:0:0:0:0:0:1 - - [24/Nov/2013:18:29:51 +0100] "GET /Strateg/VAADIN/themes/base/shadow/img/bottom-right.png HTTP/1.1" 304 -
0:0:0:0:0:0:0:1 - - [24/Nov/2013:18:29:51 +0100] "GET /Strateg/VAADIN/themes/base/shadow/img/top-right.png HTTP/1.1" 304 -
0:0:0:0:0:0:0:1 - - [24/Nov/2013:18:29:51 +0100] "GET /Strateg/VAADIN/themes/base/shadow/img/center.png HTTP/1.1" 304 -
0:0:0:0:0:0:0:1 - - [24/Nov/2013:18:29:51 +0100] "GET /Strateg/VAADIN/themes/base/shadow/img/bottom-left.png HTTP/1.1" 304 -
0:0:0:0:0:0:0:1 - - [24/Nov/2013:18:29:52 +0100] "GET /Strateg/VAADIN/themes/reindeer/select/img/right-focus.png HTTP/1.1" 304 -
0:0:0:0:0:0:0:1 - - [24/Nov/2013:18:29:52 +0100] "POST /Strateg/UIDL/?v-uiId=0 HTTP/1.1" 200 604
0:0:0:0:0:0:0:1 - - [24/Nov/2013:18:29:54 +0100] "POST /Strateg/UIDL/?v-uiId=0 HTTP/1.1" 200 1369
127.0.0.1 - - [24/Nov/2013:18:31:06 +0100] "GET / HTTP/1.1" 404 951
0:0:0:0:0:0:0:1 - - [24/Nov/2013:18:31:06 +0100] "GET /Strateg/ HTTP/1.1" 200 2076
0:0:0:0:0:0:0:1 - - [24/Nov/2013:18:31:07 +0100] "GET /Strateg/VAADIN/widgetsets/pl.edu.agh.strateg.ui.widgetset.StrategWidgetset/pl.edu.agh.strateg.ui.widgetset.StrategWidgetset.nocache.js?1385314267009 HTTP/1.1" 200 7817
0:0:0:0:0:0:0:1 - - [24/Nov/2013:18:31:08 +0100] "POST /Strateg/?v-browserDetails=1&theme=strateg&v-sh=1024&v-sw=1280&v-cw=1280&v-ch=938&v-curdate=1385314267009&v-tzo=-60&v-dstd=60&v-rtzo=-60&v-dston=false&v-vw=1280&v-vh=0&v-loc=http%3A%2F%2Flocalhost%3A8080%2FStrateg%2F&v-wn=Strateg-217338458-0.374198826495558&v-1385314267009 HTTP/1.1" 200 3915
0:0:0:0:0:0:0:1 - - [24/Nov/2013:18:31:08 +0100] "GET /Strateg/VAADIN/themes/strateg/Icons/Documents.png HTTP/1.1" 404 -
0:0:0:0:0:0:0:1 - - [24/Nov/2013:18:31:08 +0100] "GET /Strateg/VAADIN/themes/strateg/Icons/Analysis.png HTTP/1.1" 404 -
0:0:0:0:0:0:0:1 - - [24/Nov/2013:18:31:08 +0100] "GET /Strateg/VAADIN/themes/strateg/Icons/Metadata.png HTTP/1.1" 404 -
0:0:0:0:0:0:0:1 - - [24/Nov/2013:18:31:08 +0100] "GET /Strateg/VAADIN/themes/strateg/Icons/Report.png HTTP/1.1" 404 -
127.0.0.1 - - [24/Nov/2013:18:31:58 +0100] "GET / HTTP/1.1" 404 951
0:0:0:0:0:0:0:1 - - [24/Nov/2013:18:31:59 +0100] "GET /Strateg/ HTTP/1.1" 200 2076
0:0:0:0:0:0:0:1 - - [24/Nov/2013:18:31:59 +0100] "GET /Strateg/VAADIN/widgetsets/pl.edu.agh.strateg.ui.widgetset.StrategWidgetset/pl.edu.agh.strateg.ui.widgetset.StrategWidgetset.nocache.js?1385314319681 HTTP/1.1" 200 7817
0:0:0:0:0:0:0:1 - - [24/Nov/2013:18:32:08 +0100] "POST /Strateg/?v-browserDetails=1&theme=strateg&v-sh=1024&v-sw=1280&v-cw=1280&v-ch=938&v-curdate=1385314319681&v-tzo=-60&v-dstd=60&v-rtzo=-60&v-dston=false&v-vw=1280&v-vh=0&v-loc=http%3A%2F%2Flocalhost%3A8080%2FStrateg%2F&v-wn=Strateg-217338458-0.9856612693984061&v-1385314319681 HTTP/1.1" 200 3916
0:0:0:0:0:0:0:1 - - [24/Nov/2013:18:32:08 +0100] "GET /Strateg/VAADIN/themes/strateg/Icons/Analysis.png HTTP/1.1" 404 -
0:0:0:0:0:0:0:1 - - [24/Nov/2013:18:32:08 +0100] "GET /Strateg/VAADIN/themes/strateg/Icons/Documents.png HTTP/1.1" 404 -
0:0:0:0:0:0:0:1 - - [24/Nov/2013:18:32:08 +0100] "GET /Strateg/VAADIN/themes/strateg/Icons/Metadata.png HTTP/1.1" 404 -
0:0:0:0:0:0:0:1 - - [24/Nov/2013:18:32:08 +0100] "GET /Strateg/VAADIN/themes/strateg/Icons/Report.png HTTP/1.1" 404 -
0:0:0:0:0:0:0:1 - - [24/Nov/2013:18:33:16 +0100] "POST /Strateg/UIDL/?v-sh=1024&v-sw=1280&v-cw=1280&v-ch=938&v-curdate=1385314331459&v-tzo=-60&v-dstd=60&v-rtzo=-60&v-dston=false&v-vw=1280&v-vh=938&v-loc=http%3A%2F%2Flocalhost%3A8080%2FStrateg%2F%23!start&v-wn=Strateg-217338458-0.9856612693984061&v-wsver=7.1.7&v-uiId=0 HTTP/1.1" 200 4447
0:0:0:0:0:0:0:1 - - [24/Nov/2013:18:33:16 +0100] "GET /Strateg/VAADIN/themes/strateg/Icons/Home.png HTTP/1.1" 404 -
0:0:0:0:0:0:0:1 - - [24/Nov/2013:18:33:16 +0100] "GET /Strateg/VAADIN/themes/strateg/Icons/Add.png HTTP/1.1" 404 -
0:0:0:0:0:0:0:1 - - [24/Nov/2013:18:33:16 +0100] "GET /Strateg/VAADIN/themes/strateg/Icons/Edit.png HTTP/1.1" 404 -
0:0:0:0:0:0:0:1 - - [24/Nov/2013:18:33:16 +0100] "GET /Strateg/VAADIN/themes/strateg/Icons/Delete.png HTTP/1.1" 404 -
0:0:0:0:0:0:0:1 - - [24/Nov/2013:18:36:09 +0100] "POST /Strateg/HEARTBEAT/?v-uiId=0 HTTP/1.1" 200 -
127.0.0.1 - - [24/Nov/2013:18:38:05 +0100] "GET / HTTP/1.1" 404 951
0:0:0:0:0:0:0:1 - - [24/Nov/2013:18:38:06 +0100] "GET /Strateg/ HTTP/1.1" 200 2076
0:0:0:0:0:0:0:1 - - [24/Nov/2013:18:38:06 +0100] "GET /Strateg/VAADIN/widgetsets/pl.edu.agh.strateg.ui.widgetset.StrategWidgetset/pl.edu.agh.strateg.ui.widgetset.StrategWidgetset.nocache.js?1385314686372 HTTP/1.1" 200 7817
0:0:0:0:0:0:0:1 - - [24/Nov/2013:18:38:07 +0100] "POST /Strateg/?v-browserDetails=1&theme=strateg&v-sh=1024&v-sw=1280&v-cw=1280&v-ch=938&v-curdate=1385314686388&v-tzo=-60&v-dstd=60&v-rtzo=-60&v-dston=false&v-vw=1280&v-vh=0&v-loc=http%3A%2F%2Flocalhost%3A8080%2FStrateg%2F&v-wn=Strateg-217338458-0.4878608009312302&v-1385314686388 HTTP/1.1" 200 3916
0:0:0:0:0:0:0:1 - - [24/Nov/2013:18:38:07 +0100] "GET /Strateg/VAADIN/themes/strateg/Icons/Documents.png HTTP/1.1" 404 -
0:0:0:0:0:0:0:1 - - [24/Nov/2013:18:38:07 +0100] "GET /Strateg/VAADIN/themes/strateg/Icons/Analysis.png HTTP/1.1" 404 -
0:0:0:0:0:0:0:1 - - [24/Nov/2013:18:38:07 +0100] "GET /Strateg/VAADIN/themes/strateg/Icons/Report.png HTTP/1.1" 404 -
0:0:0:0:0:0:0:1 - - [24/Nov/2013:18:38:07 +0100] "GET /Strateg/VAADIN/themes/strateg/Icons/Metadata.png HTTP/1.1" 404 -
0:0:0:0:0:0:0:1 - - [24/Nov/2013:18:38:09 +0100] "POST /Strateg/UIDL/?v-sh=1024&v-sw=1280&v-cw=1280&v-ch=938&v-curdate=1385314689554&v-tzo=-60&v-dstd=60&v-rtzo=-60&v-dston=false&v-vw=1280&v-vh=938&v-loc=http%3A%2F%2Flocalhost%3A8080%2FStrateg%2F%23!start&v-wn=Strateg-217338458-0.4878608009312302&v-wsver=7.1.7&v-uiId=0 HTTP/1.1" 200 4446
0:0:0:0:0:0:0:1 - - [24/Nov/2013:18:38:09 +0100] "GET /Strateg/VAADIN/themes/strateg/Icons/Home.png HTTP/1.1" 404 -
0:0:0:0:0:0:0:1 - - [24/Nov/2013:18:38:09 +0100] "GET /Strateg/VAADIN/themes/strateg/Icons/Add.png HTTP/1.1" 404 -
0:0:0:0:0:0:0:1 - - [24/Nov/2013:18:38:09 +0100] "GET /Strateg/VAADIN/themes/strateg/Icons/Edit.png HTTP/1.1" 404 -
0:0:0:0:0:0:0:1 - - [24/Nov/2013:18:38:09 +0100] "GET /Strateg/VAADIN/themes/strateg/Icons/Delete.png HTTP/1.1" 404 -
0:0:0:0:0:0:0:1 - - [24/Nov/2013:18:38:13 +0100] "POST /Strateg/UIDL/?v-uiId=0 HTTP/1.1" 200 5424
0:0:0:0:0:0:0:1 - - [24/Nov/2013:18:38:13 +0100] "GET /Strateg/VAADIN/themes/strateg/Icons/Home.png HTTP/1.1" 404 -
0:0:0:0:0:0:0:1 - - [24/Nov/2013:18:38:13 +0100] "GET /Strateg/VAADIN/themes/strateg/Icons/Confirm.png HTTP/1.1" 404 -
0:0:0:0:0:0:0:1 - - [24/Nov/2013:18:38:13 +0100] "GET /Strateg/VAADIN/themes/strateg/Icons/Cancel.png HTTP/1.1" 404 -
0:0:0:0:0:0:0:1 - - [24/Nov/2013:18:38:15 +0100] "POST /Strateg/UIDL/?v-uiId=0 HTTP/1.1" 200 507
0:0:0:0:0:0:0:1 - - [24/Nov/2013:18:38:17 +0100] "POST /Strateg/UIDL/?v-uiId=0 HTTP/1.1" 200 506
0:0:0:0:0:0:0:1 - - [24/Nov/2013:18:38:18 +0100] "GET /Strateg/VAADIN/themes/reindeer/select/img/right-focus-pressed.png HTTP/1.1" 304 -
0:0:0:0:0:0:0:1 - - [24/Nov/2013:18:38:18 +0100] "POST /Strateg/UIDL/?v-uiId=0 HTTP/1.1" 200 506
0:0:0:0:0:0:0:1 - - [24/Nov/2013:18:38:19 +0100] "POST /Strateg/UIDL/?v-uiId=0 HTTP/1.1" 200 506
0:0:0:0:0:0:0:1 - - [24/Nov/2013:18:38:19 +0100] "POST /Strateg/UIDL/?v-uiId=0 HTTP/1.1" 200 506
0:0:0:0:0:0:0:1 - - [24/Nov/2013:18:38:20 +0100] "POST /Strateg/UIDL/?v-uiId=0 HTTP/1.1" 200 506
0:0:0:0:0:0:0:1 - - [24/Nov/2013:18:38:20 +0100] "POST /Strateg/UIDL/?v-uiId=0 HTTP/1.1" 200 506
0:0:0:0:0:0:0:1 - - [24/Nov/2013:18:38:21 +0100] "POST /Strateg/UIDL/?v-uiId=0 HTTP/1.1" 200 506
127.0.0.1 - - [24/Nov/2013:18:38:36 +0100] "GET / HTTP/1.1" 404 951
0:0:0:0:0:0:0:1 - - [24/Nov/2013:18:38:37 +0100] "GET /Strateg/ HTTP/1.1" 200 2076
0:0:0:0:0:0:0:1 - - [24/Nov/2013:18:38:37 +0100] "GET /Strateg/VAADIN/widgetsets/pl.edu.agh.strateg.ui.widgetset.StrategWidgetset/pl.edu.agh.strateg.ui.widgetset.StrategWidgetset.nocache.js?1385314717531 HTTP/1.1" 200 7817
0:0:0:0:0:0:0:1 - - [24/Nov/2013:18:38:38 +0100] "POST /Strateg/?v-browserDetails=1&theme=strateg&v-sh=1024&v-sw=1280&v-cw=1280&v-ch=938&v-curdate=1385314717547&v-tzo=-60&v-dstd=60&v-rtzo=-60&v-dston=false&v-vw=1280&v-vh=0&v-loc=http%3A%2F%2Flocalhost%3A8080%2FStrateg%2F&v-wn=Strateg-217338458-0.09559976705349982&v-1385314717547 HTTP/1.1" 200 3917
0:0:0:0:0:0:0:1 - - [24/Nov/2013:18:38:38 +0100] "GET /Strateg/VAADIN/themes/strateg/Icons/Documents.png HTTP/1.1" 404 -
0:0:0:0:0:0:0:1 - - [24/Nov/2013:18:38:38 +0100] "GET /Strateg/VAADIN/themes/strateg/Icons/Analysis.png HTTP/1.1" 404 -
0:0:0:0:0:0:0:1 - - [24/Nov/2013:18:38:38 +0100] "GET /Strateg/VAADIN/themes/strateg/Icons/Metadata.png HTTP/1.1" 404 -
0:0:0:0:0:0:0:1 - - [24/Nov/2013:18:38:38 +0100] "GET /Strateg/VAADIN/themes/strateg/Icons/Report.png HTTP/1.1" 404 -
0:0:0:0:0:0:0:1 - - [24/Nov/2013:18:39:50 +0100] "POST /Strateg/UIDL/?v-sh=1024&v-sw=1280&v-cw=1280&v-ch=938&v-curdate=1385314741602&v-tzo=-60&v-dstd=60&v-rtzo=-60&v-dston=false&v-vw=1280&v-vh=938&v-loc=http%3A%2F%2Flocalhost%3A8080%2FStrateg%2F%23!start&v-wn=Strateg-217338458-0.09559976705349982&v-wsver=7.1.7&v-uiId=0 HTTP/1.1" 200 4443
0:0:0:0:0:0:0:1 - - [24/Nov/2013:18:39:50 +0100] "GET /Strateg/VAADIN/themes/strateg/Icons/Home.png HTTP/1.1" 404 -
0:0:0:0:0:0:0:1 - - [24/Nov/2013:18:39:50 +0100] "GET /Strateg/VAADIN/themes/strateg/Icons/Add.png HTTP/1.1" 404 -
0:0:0:0:0:0:0:1 - - [24/Nov/2013:18:39:50 +0100] "GET /Strateg/VAADIN/themes/strateg/Icons/Edit.png HTTP/1.1" 404 -
0:0:0:0:0:0:0:1 - - [24/Nov/2013:18:39:50 +0100] "GET /Strateg/VAADIN/themes/strateg/Icons/Delete.png HTTP/1.1" 404 -
0:0:0:0:0:0:0:1 - - [24/Nov/2013:18:39:54 +0100] "POST /Strateg/UIDL/?v-uiId=0 HTTP/1.1" 200 189
0:0:0:0:0:0:0:1 - - [24/Nov/2013:18:39:56 +0100] "POST /Strateg/UIDL/?v-uiId=0 HTTP/1.1" 200 157
0:0:0:0:0:0:0:1 - - [24/Nov/2013:18:39:57 +0100] "POST /Strateg/UIDL/?v-uiId=0 HTTP/1.1" 200 1091
0:0:0:0:0:0:0:1 - - [24/Nov/2013:18:39:59 +0100] "POST /Strateg/UIDL/?v-uiId=0 HTTP/1.1" 200 1087
0:0:0:0:0:0:0:1 - - [24/Nov/2013:18:39:59 +0100] "POST /Strateg/UIDL/?v-uiId=0 HTTP/1.1" 200 1086
0:0:0:0:0:0:0:1 - - [24/Nov/2013:18:40:00 +0100] "POST /Strateg/UIDL/?v-uiId=0 HTTP/1.1" 200 1056
0:0:0:0:0:0:0:1 - - [24/Nov/2013:18:40:12 +0100] "POST /Strateg/UIDL/?v-uiId=0 HTTP/1.1" 200 5421
0:0:0:0:0:0:0:1 - - [24/Nov/2013:18:40:12 +0100] "GET /Strateg/VAADIN/themes/strateg/Icons/Home.png HTTP/1.1" 404 -
0:0:0:0:0:0:0:1 - - [24/Nov/2013:18:40:12 +0100] "GET /Strateg/VAADIN/themes/strateg/Icons/Confirm.png HTTP/1.1" 404 -
0:0:0:0:0:0:0:1 - - [24/Nov/2013:18:40:12 +0100] "GET /Strateg/VAADIN/themes/strateg/Icons/Cancel.png HTTP/1.1" 404 -
0:0:0:0:0:0:0:1 - - [24/Nov/2013:18:40:14 +0100] "POST /Strateg/UIDL/?v-uiId=0 HTTP/1.1" 200 511
0:0:0:0:0:0:0:1 - - [24/Nov/2013:18:40:16 +0100] "POST /Strateg/UIDL/?v-uiId=0 HTTP/1.1" 200 507
0:0:0:0:0:0:0:1 - - [24/Nov/2013:18:40:18 +0100] "POST /Strateg/UIDL/?v-uiId=0 HTTP/1.1" 200 507
0:0:0:0:0:0:0:1 - - [24/Nov/2013:18:40:19 +0100] "POST /Strateg/UIDL/?v-uiId=0 HTTP/1.1" 200 507
0:0:0:0:0:0:0:1 - - [24/Nov/2013:18:40:21 +0100] "POST /Strateg/UIDL/?v-uiId=0 HTTP/1.1" 200 507
0:0:0:0:0:0:0:1 - - [24/Nov/2013:18:40:21 +0100] "POST /Strateg/UIDL/?v-uiId=0 HTTP/1.1" 200 507
0:0:0:0:0:0:0:1 - - [24/Nov/2013:18:40:22 +0100] "POST /Strateg/UIDL/?v-uiId=0 HTTP/1.1" 200 507
0:0:0:0:0:0:0:1 - - [24/Nov/2013:18:43:38 +0100] "POST /Strateg/HEARTBEAT/?v-uiId=0 HTTP/1.1" 200 -
0:0:0:0:0:0:0:1 - - [24/Nov/2013:18:43:52 +0100] "POST /Strateg/UIDL/?v-uiId=0 HTTP/1.1" 200 507
0:0:0:0:0:0:0:1 - - [24/Nov/2013:18:43:53 +0100] "POST /Strateg/UIDL/?v-uiId=0 HTTP/1.1" 200 507
127.0.0.1 - - [24/Nov/2013:22:38:39 +0100] "GET / HTTP/1.1" 404 951
0:0:0:0:0:0:0:1 - - [24/Nov/2013:22:38:47 +0100] "GET /Strateg/ HTTP/1.1" 200 2076
0:0:0:0:0:0:0:1 - - [24/Nov/2013:22:38:47 +0100] "GET /Strateg/VAADIN/vaadinBootstrap.js HTTP/1.1" 304 -
0:0:0:0:0:0:0:1 - - [24/Nov/2013:22:38:48 +0100] "GET /Strateg/VAADIN/themes/strateg/styles.css HTTP/1.1" 304 -
0:0:0:0:0:0:0:1 - - [24/Nov/2013:22:38:48 +0100] "GET /Strateg/VAADIN/widgetsets/pl.edu.agh.strateg.ui.widgetset.StrategWidgetset/pl.edu.agh.strateg.ui.widgetset.StrategWidgetset.nocache.js?1385329127935 HTTP/1.1" 200 7817
0:0:0:0:0:0:0:1 - - [24/Nov/2013:22:38:48 +0100] "GET /Strateg/VAADIN/widgetsets/pl.edu.agh.strateg.ui.widgetset.StrategWidgetset/424BDA33847E257F0C702074BD382306.cache.js HTTP/1.1" 304 -
0:0:0:0:0:0:0:1 - - [24/Nov/2013:22:38:48 +0100] "GET /Strateg/VAADIN/themes/base/common/img/loading-indicator.gif HTTP/1.1" 304 -
0:0:0:0:0:0:0:1 - - [24/Nov/2013:22:38:49 +0100] "POST /Strateg/?v-browserDetails=1&theme=strateg&v-sh=1024&v-sw=1280&v-cw=1280&v-ch=938&v-curdate=1385329127935&v-tzo=-60&v-dstd=60&v-rtzo=-60&v-dston=false&v-vw=1280&v-vh=0&v-loc=http%3A%2F%2Flocalhost%3A8080%2FStrateg%2F&v-wn=Strateg-217338458-0.09627741575241089&v-1385329127935 HTTP/1.1" 200 3916
0:0:0:0:0:0:0:1 - - [24/Nov/2013:22:38:49 +0100] "GET /Strateg/VAADIN/themes/strateg/Icons/Documents.png HTTP/1.1" 404 -
0:0:0:0:0:0:0:1 - - [24/Nov/2013:22:38:49 +0100] "GET /Strateg/VAADIN/themes/strateg/Icons/Metadata.png HTTP/1.1" 404 -
0:0:0:0:0:0:0:1 - - [24/Nov/2013:22:38:49 +0100] "GET /Strateg/VAADIN/themes/strateg/Icons/Analysis.png HTTP/1.1" 404 -
0:0:0:0:0:0:0:1 - - [24/Nov/2013:22:38:49 +0100] "GET /Strateg/VAADIN/themes/strateg/Icons/Report.png HTTP/1.1" 404 -
0:0:0:0:0:0:0:1 - - [24/Nov/2013:22:39:14 +0100] "POST /Strateg/UIDL/?v-sh=1024&v-sw=1280&v-cw=1280&v-ch=938&v-curdate=1385329154440&v-tzo=-60&v-dstd=60&v-rtzo=-60&v-dston=false&v-vw=1280&v-vh=938&v-loc=http%3A%2F%2Flocalhost%3A8080%2FStrateg%2F%23!start&v-wn=Strateg-217338458-0.09627741575241089&v-wsver=7.1.7&v-uiId=0 HTTP/1.1" 200 4446
0:0:0:0:0:0:0:1 - - [24/Nov/2013:22:39:14 +0100] "GET /Strateg/VAADIN/themes/reindeer/button/img/left.png HTTP/1.1" 304 -
0:0:0:0:0:0:0:1 - - [24/Nov/2013:22:39:14 +0100] "GET /Strateg/VAADIN/themes/reindeer/button/img/right.png HTTP/1.1" 304 -
0:0:0:0:0:0:0:1 - - [24/Nov/2013:22:39:14 +0100] "GET /Strateg/VAADIN/themes/reindeer/table/img/header-bg-light.png HTTP/1.1" 304 -
0:0:0:0:0:0:0:1 - - [24/Nov/2013:22:39:14 +0100] "GET /Strateg/VAADIN/themes/reindeer/tabsheet/img/tab-prev.png HTTP/1.1" 304 -
0:0:0:0:0:0:0:1 - - [24/Nov/2013:22:39:14 +0100] "GET /Strateg/VAADIN/themes/reindeer/tabsheet/img/framed/tab-bg.png HTTP/1.1" 304 -
0:0:0:0:0:0:0:1 - - [24/Nov/2013:22:39:14 +0100] "GET /Strateg/VAADIN/themes/reindeer/tabsheet/img/framed/tab-spacer-right.png HTTP/1.1" 304 -
0:0:0:0:0:0:0:1 - - [24/Nov/2013:22:39:14 +0100] "GET /Strateg/VAADIN/themes/reindeer/table/img/col-sel-light.png HTTP/1.1" 304 -
0:0:0:0:0:0:0:1 - - [24/Nov/2013:22:39:14 +0100] "GET /Strateg/VAADIN/themes/reindeer/tabsheet/img/tab-next.png HTTP/1.1" 304 -
0:0:0:0:0:0:0:1 - - [24/Nov/2013:22:39:14 +0100] "GET /Strateg/VAADIN/themes/strateg/Icons/Home.png HTTP/1.1" 404 -
0:0:0:0:0:0:0:1 - - [24/Nov/2013:22:39:14 +0100] "GET /Strateg/VAADIN/themes/strateg/Icons/Add.png HTTP/1.1" 404 -
0:0:0:0:0:0:0:1 - - [24/Nov/2013:22:39:14 +0100] "GET /Strateg/VAADIN/themes/strateg/Icons/Edit.png HTTP/1.1" 404 -
0:0:0:0:0:0:0:1 - - [24/Nov/2013:22:39:14 +0100] "GET /Strateg/VAADIN/themes/strateg/Icons/Delete.png HTTP/1.1" 404 -
0:0:0:0:0:0:0:1 - - [24/Nov/2013:22:39:14 +0100] "GET /Strateg/VAADIN/themes/reindeer/tabsheet/img/framed/tab-first-left.png HTTP/1.1" 304 -
0:0:0:0:0:0:0:1 - - [24/Nov/2013:22:39:14 +0100] "GET /Strateg/VAADIN/themes/reindeer/tabsheet/img/framed/tab-right.png HTTP/1.1" 304 -
0:0:0:0:0:0:0:1 - - [24/Nov/2013:22:39:14 +0100] "GET /Strateg/VAADIN/themes/reindeer/tabsheet/img/framed/tab-first-left-sel.png HTTP/1.1" 304 -
0:0:0:0:0:0:0:1 - - [24/Nov/2013:22:39:14 +0100] "GET /Strateg/VAADIN/themes/reindeer/tabsheet/img/framed/tab-bg-sel.png HTTP/1.1" 304 -
0:0:0:0:0:0:0:1 - - [24/Nov/2013:22:39:14 +0100] "GET /Strateg/VAADIN/themes/reindeer/tabsheet/img/framed/tab-right-sel.png HTTP/1.1" 304 -
0:0:0:0:0:0:0:1 - - [24/Nov/2013:22:39:14 +0100] "GET /Strateg/VAADIN/themes/reindeer/tree/img/arrows.png HTTP/1.1" 304 -
0:0:0:0:0:0:0:1 - - [24/Nov/2013:22:39:17 +0100] "GET /Strateg/VAADIN/themes/reindeer/button/img/right-pressed.png HTTP/1.1" 304 -
0:0:0:0:0:0:0:1 - - [24/Nov/2013:22:39:17 +0100] "GET /Strateg/VAADIN/themes/reindeer/button/img/left-pressed.png HTTP/1.1" 304 -
0:0:0:0:0:0:0:1 - - [24/Nov/2013:22:39:17 +0100] "GET /Strateg/VAADIN/themes/reindeer/button/img/left-focus.png HTTP/1.1" 304 -
0:0:0:0:0:0:0:1 - - [24/Nov/2013:22:39:17 +0100] "GET /Strateg/VAADIN/themes/reindeer/button/img/right-focus.png HTTP/1.1" 304 -
0:0:0:0:0:0:0:1 - - [24/Nov/2013:22:39:17 +0100] "POST /Strateg/UIDL/?v-uiId=0 HTTP/1.1" 200 5425
0:0:0:0:0:0:0:1 - - [24/Nov/2013:22:39:17 +0100] "GET /Strateg/VAADIN/themes/strateg/Icons/Home.png HTTP/1.1" 404 -
0:0:0:0:0:0:0:1 - - [24/Nov/2013:22:39:17 +0100] "GET /Strateg/VAADIN/themes/strateg/Icons/Cancel.png HTTP/1.1" 404 -
0:0:0:0:0:0:0:1 - - [24/Nov/2013:22:39:17 +0100] "GET /Strateg/VAADIN/themes/strateg/Icons/Confirm.png HTTP/1.1" 404 -
0:0:0:0:0:0:0:1 - - [24/Nov/2013:22:39:17 +0100] "GET /Strateg/VAADIN/themes/reindeer/textfield/img/bg.png HTTP/1.1" 304 -
0:0:0:0:0:0:0:1 - - [24/Nov/2013:22:39:17 +0100] "GET /Strateg/VAADIN/themes/reindeer/select/img/left.png HTTP/1.1" 304 -
0:0:0:0:0:0:0:1 - - [24/Nov/2013:22:39:17 +0100] "GET /Strateg/VAADIN/themes/reindeer/select/img/right.png HTTP/1.1" 304 -
0:0:0:0:0:0:0:1 - - [24/Nov/2013:22:39:17 +0100] "GET /Strateg/VAADIN/themes/reindeer/select/img/center.png HTTP/1.1" 304 -
0:0:0:0:0:0:0:1 - - [24/Nov/2013:22:39:18 +0100] "GET /Strateg/VAADIN/themes/reindeer/select/img/right-hover.png HTTP/1.1" 304 -
0:0:0:0:0:0:0:1 - - [24/Nov/2013:22:39:18 +0100] "GET /Strateg/VAADIN/themes/reindeer/select/img/right-pressed.png HTTP/1.1" 304 -
0:0:0:0:0:0:0:1 - - [24/Nov/2013:22:39:18 +0100] "GET /Strateg/VAADIN/themes/reindeer/select/img/left-focus.png HTTP/1.1" 304 -
0:0:0:0:0:0:0:1 - - [24/Nov/2013:22:39:18 +0100] "GET /Strateg/VAADIN/themes/reindeer/select/img/center-focus.png HTTP/1.1" 304 -
0:0:0:0:0:0:0:1 - - [24/Nov/2013:22:39:18 +0100] "POST /Strateg/UIDL/?v-uiId=0 HTTP/1.1" 200 507
0:0:0:0:0:0:0:1 - - [24/Nov/2013:22:39:18 +0100] "GET /Strateg/VAADIN/themes/reindeer/select/img/right-focus-hover.png HTTP/1.1" 304 -
0:0:0:0:0:0:0:1 - - [24/Nov/2013:22:39:18 +0100] "GET /Strateg/VAADIN/themes/reindeer/common/img/sel-bg.png HTTP/1.1" 304 -
0:0:0:0:0:0:0:1 - - [24/Nov/2013:22:39:18 +0100] "GET /Strateg/VAADIN/themes/reindeer/select/img/status-bg.png HTTP/1.1" 304 -
0:0:0:0:0:0:0:1 - - [24/Nov/2013:22:39:18 +0100] "GET /Strateg/VAADIN/themes/base/shadow/img/top-left.png HTTP/1.1" 304 -
0:0:0:0:0:0:0:1 - - [24/Nov/2013:22:39:18 +0100] "GET /Strateg/VAADIN/themes/base/shadow/img/top-right.png HTTP/1.1" 304 -
0:0:0:0:0:0:0:1 - - [24/Nov/2013:22:39:18 +0100] "GET /Strateg/VAADIN/themes/base/shadow/img/bottom-left.png HTTP/1.1" 304 -
0:0:0:0:0:0:0:1 - - [24/Nov/2013:22:39:18 +0100] "GET /Strateg/VAADIN/themes/base/shadow/img/right.png HTTP/1.1" 304 -
0:0:0:0:0:0:0:1 - - [24/Nov/2013:22:39:18 +0100] "GET /Strateg/VAADIN/themes/base/shadow/img/center.png HTTP/1.1" 304 -
0:0:0:0:0:0:0:1 - - [24/Nov/2013:22:39:18 +0100] "GET /Strateg/VAADIN/themes/base/shadow/img/left.png HTTP/1.1" 304 -
0:0:0:0:0:0:0:1 - - [24/Nov/2013:22:39:18 +0100] "GET /Strateg/VAADIN/themes/base/shadow/img/bottom-right.png HTTP/1.1" 304 -
0:0:0:0:0:0:0:1 - - [24/Nov/2013:22:39:18 +0100] "GET /Strateg/VAADIN/themes/base/shadow/img/top.png HTTP/1.1" 304 -
0:0:0:0:0:0:0:1 - - [24/Nov/2013:22:39:18 +0100] "GET /Strateg/VAADIN/themes/base/shadow/img/bottom.png HTTP/1.1" 304 -
0:0:0:0:0:0:0:1 - - [24/Nov/2013:22:39:19 +0100] "GET /Strateg/VAADIN/themes/reindeer/select/img/right-focus.png HTTP/1.1" 304 -
0:0:0:0:0:0:0:1 - - [24/Nov/2013:22:39:19 +0100] "POST /Strateg/UIDL/?v-uiId=0 HTTP/1.1" 200 506
0:0:0:0:0:0:0:1 - - [24/Nov/2013:22:39:20 +0100] "GET /Strateg/VAADIN/themes/reindeer/select/img/right-focus-pressed.png HTTP/1.1" 304 -
0:0:0:0:0:0:0:1 - - [24/Nov/2013:22:39:20 +0100] "POST /Strateg/UIDL/?v-uiId=0 HTTP/1.1" 200 506
0:0:0:0:0:0:0:1 - - [24/Nov/2013:22:39:21 +0100] "POST /Strateg/UIDL/?v-uiId=0 HTTP/1.1" 200 506
0:0:0:0:0:0:0:1 - - [24/Nov/2013:22:39:23 +0100] "POST /Strateg/UIDL/?v-uiId=0 HTTP/1.1" 200 506
0:0:0:0:0:0:0:1 - - [24/Nov/2013:22:39:24 +0100] "POST /Strateg/UIDL/?v-uiId=0 HTTP/1.1" 200 506
0:0:0:0:0:0:0:1 - - [24/Nov/2013:22:39:24 +0100] "POST /Strateg/UIDL/?v-uiId=0 HTTP/1.1" 200 506
0:0:0:0:0:0:0:1 - - [24/Nov/2013:22:39:25 +0100] "POST /Strateg/UIDL/?v-uiId=0 HTTP/1.1" 200 506
0:0:0:0:0:0:0:1 - - [24/Nov/2013:22:39:25 +0100] "POST /Strateg/UIDL/?v-uiId=0 HTTP/1.1" 200 506
0:0:0:0:0:0:0:1 - - [24/Nov/2013:22:40:08 +0100] "POST /Strateg/UIDL/?v-uiId=0 HTTP/1.1" 200 234
0:0:0:0:0:0:0:1 - - [24/Nov/2013:22:40:08 +0100] "POST /Strateg/UIDL/?v-uiId=0 HTTP/1.1" 200 6880
0:0:0:0:0:0:0:1 - - [24/Nov/2013:22:40:08 +0100] "GET /Strateg/VAADIN/themes/reindeer/common/icons/error.png HTTP/1.1" 200 258
0:0:0:0:0:0:0:1 - - [24/Nov/2013:22:40:09 +0100] "POST /Strateg/UIDL/?v-uiId=0 HTTP/1.1" 200 1823
0:0:0:0:0:0:0:1 - - [24/Nov/2013:22:40:09 +0100] "GET /Strateg/VAADIN/themes/reindeer/datefield/img/popup-btn.png HTTP/1.1" 304 -
0:0:0:0:0:0:0:1 - - [24/Nov/2013:22:40:10 +0100] "POST /Strateg/UIDL/?v-uiId=0 HTTP/1.1" 200 1194
0:0:0:0:0:0:0:1 - - [24/Nov/2013:22:40:11 +0100] "POST /Strateg/UIDL/?v-uiId=0 HTTP/1.1" 200 403
0:0:0:0:0:0:0:1 - - [24/Nov/2013:22:40:11 +0100] "POST /Strateg/UIDL/?v-uiId=0 HTTP/1.1" 200 403
0:0:0:0:0:0:0:1 - - [24/Nov/2013:22:40:11 +0100] "POST /Strateg/UIDL/?v-uiId=0 HTTP/1.1" 200 403
0:0:0:0:0:0:0:1 - - [24/Nov/2013:22:40:12 +0100] "POST /Strateg/UIDL/?v-uiId=0 HTTP/1.1" 200 403
0:0:0:0:0:0:0:1 - - [24/Nov/2013:22:40:12 +0100] "POST /Strateg/UIDL/?v-uiId=0 HTTP/1.1" 200 403
0:0:0:0:0:0:0:1 - - [24/Nov/2013:22:40:12 +0100] "POST /Strateg/UIDL/?v-uiId=0 HTTP/1.1" 200 403
0:0:0:0:0:0:0:1 - - [24/Nov/2013:22:40:13 +0100] "POST /Strateg/UIDL/?v-uiId=0 HTTP/1.1" 200 403
0:0:0:0:0:0:0:1 - - [24/Nov/2013:22:40:13 +0100] "POST /Strateg/UIDL/?v-uiId=0 HTTP/1.1" 200 403
0:0:0:0:0:0:0:1 - - [24/Nov/2013:22:40:14 +0100] "POST /Strateg/UIDL/?v-uiId=0 HTTP/1.1" 200 1117
0:0:0:0:0:0:0:1 - - [24/Nov/2013:22:40:14 +0100] "POST /Strateg/UIDL/?v-uiId=0 HTTP/1.1" 200 359
0:0:0:0:0:0:0:1 - - [24/Nov/2013:22:40:16 +0100] "POST /Strateg/UIDL/?v-uiId=0 HTTP/1.1" 200 3854
0:0:0:0:0:0:0:1 - - [24/Nov/2013:22:40:16 +0100] "GET /Strateg/VAADIN/themes/strateg/Icons/Home.png HTTP/1.1" 404 -
0:0:0:0:0:0:0:1 - - [24/Nov/2013:22:40:16 +0100] "GET /Strateg/VAADIN/themes/strateg/Icons/Add.png HTTP/1.1" 404 -
0:0:0:0:0:0:0:1 - - [24/Nov/2013:22:40:16 +0100] "GET /Strateg/VAADIN/themes/strateg/Icons/Delete.png HTTP/1.1" 404 -
0:0:0:0:0:0:0:1 - - [24/Nov/2013:22:40:16 +0100] "GET /Strateg/VAADIN/themes/strateg/Icons/Edit.png HTTP/1.1" 404 -
0:0:0:0:0:0:0:1 - - [24/Nov/2013:22:43:49 +0100] "POST /Strateg/HEARTBEAT/?v-uiId=0 HTTP/1.1" 200 -
127.0.0.1 - - [24/Nov/2013:22:48:11 +0100] "GET / HTTP/1.1" 404 951
0:0:0:0:0:0:0:1 - - [24/Nov/2013:22:48:12 +0100] "GET /Strateg/ HTTP/1.1" 200 2076
0:0:0:0:0:0:0:1 - - [24/Nov/2013:22:48:12 +0100] "GET /Strateg/VAADIN/widgetsets/pl.edu.agh.strateg.ui.widgetset.StrategWidgetset/pl.edu.agh.strateg.ui.widgetset.StrategWidgetset.nocache.js?1385329692339 HTTP/1.1" 200 7817
0:0:0:0:0:0:0:1 - - [24/Nov/2013:22:48:13 +0100] "POST /Strateg/?v-browserDetails=1&theme=strateg&v-sh=1024&v-sw=1280&v-cw=1280&v-ch=938&v-curdate=1385329692339&v-tzo=-60&v-dstd=60&v-rtzo=-60&v-dston=false&v-vw=1280&v-vh=0&v-loc=http%3A%2F%2Flocalhost%3A8080%2FStrateg%2F&v-wn=Strateg-217338458-0.5897282068617642&v-1385329692339 HTTP/1.1" 200 4167
0:0:0:0:0:0:0:1 - - [24/Nov/2013:22:48:13 +0100] "GET /Strateg/VAADIN/themes/strateg/Icons/TitleHome.png HTTP/1.1" 200 519
0:0:0:0:0:0:0:1 - - [24/Nov/2013:22:48:13 +0100] "GET /Strateg/VAADIN/themes/strateg/Icons/Documents.png HTTP/1.1" 404 -
0:0:0:0:0:0:0:1 - - [24/Nov/2013:22:48:13 +0100] "GET /Strateg/VAADIN/themes/strateg/Icons/Analysis.png HTTP/1.1" 404 -
0:0:0:0:0:0:0:1 - - [24/Nov/2013:22:48:13 +0100] "GET /Strateg/VAADIN/themes/strateg/Icons/Metadata.png HTTP/1.1" 404 -
0:0:0:0:0:0:0:1 - - [24/Nov/2013:22:48:13 +0100] "GET /Strateg/VAADIN/themes/strateg/Icons/Report.png HTTP/1.1" 404 -
0:0:0:0:0:0:0:1 - - [24/Nov/2013:22:48:15 +0100] "POST /Strateg/UIDL/?v-sh=1024&v-sw=1280&v-cw=1280&v-ch=938&v-curdate=1385329694991&v-tzo=-60&v-dstd=60&v-rtzo=-60&v-dston=false&v-vw=1280&v-vh=938&v-loc=http%3A%2F%2Flocalhost%3A8080%2FStrateg%2F%23!start&v-wn=Strateg-217338458-0.5897282068617642&v-wsver=7.1.7&v-uiId=0 HTTP/1.1" 200 4657
0:0:0:0:0:0:0:1 - - [24/Nov/2013:22:48:15 +0100] "GET /Strateg/VAADIN/themes/strateg/Icons/TitleMetadata.png HTTP/1.1" 200 508
0:0:0:0:0:0:0:1 - - [24/Nov/2013:22:48:15 +0100] "GET /Strateg/VAADIN/themes/strateg/Icons/Home.png HTTP/1.1" 404 -
0:0:0:0:0:0:0:1 - - [24/Nov/2013:22:48:15 +0100] "GET /Strateg/VAADIN/themes/strateg/Icons/Add.png HTTP/1.1" 404 -
0:0:0:0:0:0:0:1 - - [24/Nov/2013:22:48:15 +0100] "GET /Strateg/VAADIN/themes/strateg/Icons/Edit.png HTTP/1.1" 404 -
0:0:0:0:0:0:0:1 - - [24/Nov/2013:22:48:15 +0100] "GET /Strateg/VAADIN/themes/strateg/Icons/Delete.png HTTP/1.1" 404 -
0:0:0:0:0:0:0:1 - - [24/Nov/2013:22:48:26 +0100] "POST /Strateg/UIDL/?v-uiId=0 HTTP/1.1" 200 5779
0:0:0:0:0:0:0:1 - - [24/Nov/2013:22:48:26 +0100] "GET /Strateg/VAADIN/themes/strateg/Icons/TitleNewMetadatum.png HTTP/1.1" 200 447
0:0:0:0:0:0:0:1 - - [24/Nov/2013:22:48:26 +0100] "GET /Strateg/VAADIN/themes/strateg/Icons/Home.png HTTP/1.1" 404 -
0:0:0:0:0:0:0:1 - - [24/Nov/2013:22:48:26 +0100] "GET /Strateg/VAADIN/themes/strateg/Icons/Confirm.png HTTP/1.1" 404 -
0:0:0:0:0:0:0:1 - - [24/Nov/2013:22:48:26 +0100] "GET /Strateg/VAADIN/themes/strateg/Icons/Cancel.png HTTP/1.1" 404 -
0:0:0:0:0:0:0:1 - - [24/Nov/2013:22:48:29 +0100] "POST /Strateg/UIDL/?v-uiId=0 HTTP/1.1" 200 4048
0:0:0:0:0:0:0:1 - - [24/Nov/2013:22:48:29 +0100] "GET /Strateg/VAADIN/themes/strateg/Icons/Home.png HTTP/1.1" 404 -
0:0:0:0:0:0:0:1 - - [24/Nov/2013:22:48:29 +0100] "GET /Strateg/VAADIN/themes/strateg/Icons/Add.png HTTP/1.1" 404 -
0:0:0:0:0:0:0:1 - - [24/Nov/2013:22:48:29 +0100] "GET /Strateg/VAADIN/themes/strateg/Icons/Edit.png HTTP/1.1" 404 -
0:0:0:0:0:0:0:1 - - [24/Nov/2013:22:48:29 +0100] "GET /Strateg/VAADIN/themes/strateg/Icons/Delete.png HTTP/1.1" 404 -
127.0.0.1 - - [24/Nov/2013:22:48:36 +0100] "GET / HTTP/1.1" 404 951
0:0:0:0:0:0:0:1 - - [24/Nov/2013:22:48:37 +0100] "GET /Strateg/ HTTP/1.1" 200 2076
0:0:0:0:0:0:0:1 - - [24/Nov/2013:22:48:37 +0100] "GET /Strateg/VAADIN/widgetsets/pl.edu.agh.strateg.ui.widgetset.StrategWidgetset/pl.edu.agh.strateg.ui.widgetset.StrategWidgetset.nocache.js?1385329717649 HTTP/1.1" 200 7817
0:0:0:0:0:0:0:1 - - [24/Nov/2013:22:48:38 +0100] "POST /Strateg/?v-browserDetails=1&theme=strateg&v-sh=1024&v-sw=1280&v-cw=1280&v-ch=938&v-curdate=1385329717649&v-tzo=-60&v-dstd=60&v-rtzo=-60&v-dston=false&v-vw=1280&v-vh=0&v-loc=http%3A%2F%2Flocalhost%3A8080%2FStrateg%2F&v-wn=Strateg-217338458-0.41914181504398584&v-1385329717649 HTTP/1.1" 200 4243
0:0:0:0:0:0:0:1 - - [24/Nov/2013:22:48:38 +0100] "GET /Strateg/VAADIN/themes/strateg/Icons/Documents.png HTTP/1.1" 404 -
0:0:0:0:0:0:0:1 - - [24/Nov/2013:22:48:38 +0100] "GET /Strateg/VAADIN/themes/strateg/Icons/Metadata.png HTTP/1.1" 404 -
0:0:0:0:0:0:0:1 - - [24/Nov/2013:22:48:38 +0100] "GET /Strateg/VAADIN/themes/strateg/Icons/Analysis.png HTTP/1.1" 404 -
0:0:0:0:0:0:0:1 - - [24/Nov/2013:22:48:38 +0100] "GET /Strateg/VAADIN/themes/strateg/Icons/Report.png HTTP/1.1" 404 -
0:0:0:0:0:0:0:1 - - [24/Nov/2013:22:48:41 +0100] "GET /Strateg/VAADIN/themes/base/common/img/loading-indicator-delay.gif HTTP/1.1" 304 -
0:0:0:0:0:0:0:1 - - [24/Nov/2013:22:48:45 +0100] "GET /Strateg/VAADIN/themes/base/common/img/loading-indicator-wait.gif HTTP/1.1" 304 -
0:0:0:0:0:0:0:1 - - [24/Nov/2013:22:49:56 +0100] "POST /Strateg/UIDL/?v-sh=1024&v-sw=1280&v-cw=1280&v-ch=938&v-curdate=1385329720488&v-tzo=-60&v-dstd=60&v-rtzo=-60&v-dston=false&v-vw=1280&v-vh=938&v-loc=http%3A%2F%2Flocalhost%3A8080%2FStrateg%2F%23!start&v-wn=Strateg-217338458-0.41914181504398584&v-wsver=7.1.7&v-uiId=1 HTTP/1.1" 200 4793
0:0:0:0:0:0:0:1 - - [24/Nov/2013:22:49:56 +0100] "POST /Strateg/HEARTBEAT/?v-uiId=0 HTTP/1.1" 200 -
0:0:0:0:0:0:0:1 - - [24/Nov/2013:22:49:57 +0100] "GET /Strateg/VAADIN/themes/strateg/Icons/Home.png HTTP/1.1" 404 -
0:0:0:0:0:0:0:1 - - [24/Nov/2013:22:49:57 +0100] "GET /Strateg/VAADIN/themes/strateg/Icons/Add.png HTTP/1.1" 404 -
0:0:0:0:0:0:0:1 - - [24/Nov/2013:22:49:57 +0100] "GET /Strateg/VAADIN/themes/strateg/Icons/Edit.png HTTP/1.1" 404 -
0:0:0:0:0:0:0:1 - - [24/Nov/2013:22:49:57 +0100] "GET /Strateg/VAADIN/themes/strateg/Icons/Delete.png HTTP/1.1" 404 -
0:0:0:0:0:0:0:1 - - [24/Nov/2013:22:50:00 +0100] "POST /Strateg/UIDL/?v-uiId=1 HTTP/1.1" 200 2109
0:0:0:0:0:0:0:1 - - [24/Nov/2013:22:50:00 +0100] "GET /Strateg/VAADIN/themes/strateg/Icons/Documents.png HTTP/1.1" 404 -
0:0:0:0:0:0:0:1 - - [24/Nov/2013:22:50:00 +0100] "GET /Strateg/VAADIN/themes/strateg/Icons/Analysis.png HTTP/1.1" 404 -
0:0:0:0:0:0:0:1 - - [24/Nov/2013:22:50:00 +0100] "GET /Strateg/VAADIN/themes/strateg/Icons/Metadata.png HTTP/1.1" 404 -
0:0:0:0:0:0:0:1 - - [24/Nov/2013:22:50:00 +0100] "GET /Strateg/VAADIN/themes/strateg/Icons/Report.png HTTP/1.1" 404 -
