\select@language {polish}
\select@language {polish}
\contentsline {section}{\numberline {1}Wst\IeC {\k e}p}{2}
\contentsline {section}{\numberline {2}Opisy etap\IeC {\'o}w}{2}
\contentsline {subsection}{\numberline {2.1}Etap I}{2}
\contentsline {subsection}{\numberline {2.2}Etap II}{3}
\contentsline {subsection}{\numberline {2.3}Etap III}{5}
\contentsline {subsection}{\numberline {2.4}Etap IV}{6}
\contentsline {section}{\numberline {3}Podsumowanie prac}{7}
\contentsline {section}{\numberline {4}Notatki ze spotka\IeC {\'n}}{8}
\contentsline {subsection}{\numberline {4.1}Klient}{8}
\contentsline {subsection}{\numberline {4.2}Prowadz\IeC {\k a}cy}{11}
