\relax 
\catcode`"\active
\bibstyle{abbrv}
\select@language{polish}
\@writefile{toc}{\select@language{polish}}
\@writefile{lof}{\select@language{polish}}
\@writefile{lot}{\select@language{polish}}
\@writefile{toc}{\contentsline {section}{\numberline {1}Cel prac i wizja produktu}{3}}
\newlabel{sec:cel-wizja}{{1}{3}}
\@writefile{toc}{\contentsline {section}{\numberline {2}Zakres funkcjonalno\IeC {\'s}ci}{3}}
\newlabel{sec:zakres-funkcjonalnosci}{{2}{3}}
\citation{Vaadin}
\citation{mongo}
\@writefile{toc}{\contentsline {section}{\numberline {3}Wybrane aspekty realizacji}{4}}
\newlabel{sec:wybrane-aspekty-realizacji}{{3}{4}}
\@writefile{toc}{\contentsline {section}{\numberline {4}Organizacja pracy}{4}}
\newlabel{sec:organizacja-pracy}{{4}{4}}
\bibdata{bibliografia}
\bibcite{mongo}{1}
\bibcite{Vaadin}{2}
\@writefile{toc}{\contentsline {section}{\numberline {5}Wyniki projektu}{5}}
\newlabel{sec:wyniki-projektu}{{5}{5}}
